<?xml version="1.0" encoding="UTF-8"?>
<svg id="svg8" width="819.8" height="370.88" version="1.1" viewBox="0 0 819.8 370.88" xmlns="http://www.w3.org/2000/svg" xmlns:cc="http://creativecommons.org/ns#" xmlns:dc="http://purl.org/dc/elements/1.1/" xmlns:rdf="http://www.w3.org/1999/02/22-rdf-syntax-ns#">
 <style id="style1"/>
 <metadata id="metadata5">
  <rdf:RDF>
   <cc:Work rdf:about="">
    <dc:format>image/svg+xml</dc:format>
    <dc:type rdf:resource="http://purl.org/dc/dcmitype/StillImage"/>
    <dc:title/>
   </cc:Work>
  </rdf:RDF>
 </metadata>
 <path id="rect2186" d="m428.42 196.45v2.9844h-50v5h50v2.9844l9.5-5.4844-4.75-2.7422z" fill="#fff" stop-color="#000000" stroke="#000"/>
 <path id="light-bulb-18-icon" d="m552.15 348.69h-1.8128c-0.12705 0-0.23002 0.103-0.23002 0.23007 0 0.12705 0.10297 0.23003 0.23002 0.23003h1.8128c0.12707 0 0.23005-0.10298 0.23005-0.23003 0-0.12707-0.10298-0.23007-0.23005-0.23007zm-0.0413 0.76592h-1.73c-0.12705 0-0.23002 0.10303-0.23002 0.23005 0 0.12708 0.10297 0.23005 0.23002 0.23005h1.73c0.12705 0 0.23002-0.10297 0.23002-0.23005 0-0.12702-0.10297-0.23005-0.23002-0.23005zm-1.7182 0.75528c0.44787 0.41405 0.494 0.49722 0.67277 0.49722h0.34435c0.17475 0 0.21785-0.0771 0.6891-0.49722zm3.472-5.512c0 1.5576-1.3395 2.4305-1.3395 3.6597h-0.61c5e-4 -1.515 1.3286-2.3129 1.3286-3.6597 0-2.521-3.9957-2.525-3.9957 0 0 1.3456 1.305 2.1092 1.3352 3.6597h-0.6167c0-1.2292-1.3395-2.1021-1.3395-3.6597-3e-5 -3.3476 5.2377-3.351 5.2377 0z" stroke-width=".025"/>
 <g id="g2033" transform="translate(-.5 5.5799)">
  <g id="g1027" transform="matrix(1.0011 0 0 1.0011 150.87 -15.967)" fill="none" stroke="#000" stroke-width="2">
   <circle id="circle1023" cx="31.017" cy="40.041" r="9.6468"/>
   <circle id="circle1025" cx="31.017" cy="59.627" r="9.6468"/>
  </g>
  <path id="path1029" d="m182.09 14.729v-9.342" fill="none" stroke="#000" stroke-width="2"/>
  <path id="path1035" d="m76.12 111.91h215" fill="none" stroke="#000" stroke-width="8"/>
  <rect id="rect1071" x=".5" y="130.83" width="173.24" height="133.19" fill="none" stroke="#000"/>
  <path id="path1081" d="m87.12 109.77v56.091" fill="none" stroke="#000" stroke-width="2"/>
  <path id="path1109" d="m87.12 195.32v-7" fill="none" stroke="#000" stroke-width="2"/>
  <rect id="rect1113" x="194.5" y="130.83" width="173.24" height="133.19" fill="none" stroke="#000"/>
  <path id="path1117" d="m217.07 308.42h40.105l-20.052 34.732z" fill="none" stroke="#000" stroke-width="2"/>
  <path id="path1121" d="m237.12 230.22v78.263" fill="none" stroke="#000" stroke-width="2"/>
  <path id="path1123" d="m281.12 110.27v54.645" fill="none" stroke="#000" stroke-width="2"/>
  <path id="path1151" d="m281.12 195.32v-7" fill="none" stroke="#000" stroke-width="2"/>
  <circle id="circle1194" transform="rotate(-90)" cx="-3.6743" cy="182.09" r="2.7576" stroke="#000" stroke-width="1.8335"/>
  <g id="g1239" transform="translate(87.215 -205.85)" stroke="#000">
   <circle id="circle1233" transform="rotate(-90)" cx="-432.98" cy="43.62" r="2.7576" stroke-width="1.8335"/>
   <circle id="circle1235" transform="rotate(-90)" cx="-414.36" cy="43.62" r="2.7576" stroke-width="1.8335"/>
   <path id="path1237" d="m48.263 412.56v22.208" fill="none" stroke-width="2"/>
  </g>
  <g id="g1247" transform="translate(193.45 -205.85)" stroke="#000">
   <circle id="circle1241" transform="rotate(-90)" cx="-432.98" cy="43.62" r="2.7576" stroke-width="1.8335"/>
   <circle id="circle1243" transform="rotate(-90)" cx="-414.36" cy="43.62" r="2.7576" stroke-width="1.8335"/>
   <path id="path1245" d="m48.263 412.56v22.208" fill="none" stroke-width="2"/>
  </g>
  <g id="g1287" transform="translate(43.446 -248.13)" stroke="#000">
   <circle id="circle1281" transform="rotate(-90)" cx="-432.98" cy="43.62" r="2.7576" stroke-width="1.8335"/>
   <circle id="circle1283" transform="rotate(-90)" cx="-414.36" cy="43.62" r="2.7576" stroke-width="1.8335"/>
   <path id="path1285" d="m48.263 412.56v22.208" fill="none" stroke-width="2"/>
  </g>
  <g id="g1215">
   <g id="g1295" transform="translate(237.46 -248.13)" stroke="#000">
    <circle id="circle1289" transform="rotate(-90)" cx="-432.98" cy="43.62" r="2.7576" stroke-width="1.8335"/>
    <circle id="circle1291" transform="rotate(-90)" cx="-414.36" cy="43.62" r="2.7576" stroke-width="1.8335"/>
    <path id="path1293" d="m48.263 412.56v22.208" fill="none" stroke-width="2"/>
   </g>
  </g>
  <g id="g1336" transform="translate(-.5 -205.85)" fill="none" stroke="#000">
   <path id="path1330" d="m24.66 403.17h125.92" stroke-width="8"/>
   <path id="path1332" d="m43.62 406.17v5.7999" stroke-width="2"/>
   <path id="path1334" d="m131.61 406.17v5.7999" stroke-width="2"/>
  </g>
  <path id="path1338" d="m87.12 195.32v-7" fill="none" stroke="#000" stroke-width="2"/>
  <g id="g1346" transform="translate(193.5 -205.85)" fill="none" stroke="#000">
   <path id="path1340" d="m24.66 403.17h125.92" stroke-width="8"/>
   <path id="path1342" d="m43.62 406.17v5.7999" stroke-width="2"/>
   <path id="path1344" d="m131.61 406.17v5.7999" stroke-width="2"/>
  </g>
  <path id="path1358" d="m182.09 64.3v-10.995" fill="none" stroke="#000" stroke-width="2"/>
  <g id="g960" transform="translate(-.71377 -205.85)" stroke="#000">
   <circle id="circle954" transform="rotate(-90)" cx="-432.98" cy="43.62" r="2.7576" stroke-width="1.8335"/>
   <circle id="circle956" transform="rotate(-90)" cx="-414.36" cy="43.62" r="2.7576" stroke-width="1.8335"/>
   <path id="path958" d="m48.263 412.56v22.208" fill="none" stroke-width="2"/>
  </g>
  <path id="path962" d="m22.801 308.42h40.105l-20.052 34.732z" fill="none" stroke="#000" stroke-width="2"/>
  <path id="path964" d="m42.853 229.79v78.542" fill="none" stroke="#000" stroke-width="2"/>
  <g id="g972" transform="translate(281.45 -205.85)" stroke="#000">
   <circle id="circle966" transform="rotate(-90)" cx="-432.98" cy="43.62" r="2.7576" stroke-width="1.8335"/>
   <circle id="circle968" transform="rotate(-90)" cx="-414.36" cy="43.62" r="2.7576" stroke-width="1.8335"/>
   <path id="path970" d="m48.263 412.56v22.208" fill="none" stroke-width="2"/>
  </g>
  <path id="path1087" d="m110.63 308.42h40.105l-20.052 34.732z" fill="none" stroke="#000" stroke-width="2"/>
  <path id="path1089" d="m130.68 229.79v78.595" fill="none" stroke="#000" stroke-width="2"/>
  <path id="path1093" d="m345.09 308.42h-40.105l20.052 34.732z" fill="none" stroke="#000" stroke-width="2"/>
  <path id="path1095" d="m325.04 229.79v78.288" fill="none" stroke="#000" stroke-width="2"/>
  <g id="g1191" transform="translate(-450.56)">
   <path id="path1118" d="m760.47 315.59c6.8233-6.2259 13.231 0.90415 13.231 0.90415l-1.1062 1.0852s-5.3828-5.9951-10.995-0.8733" fill="none" stop-color="#000000" stroke="#f00" stroke-width=".5" style="font-variation-settings:normal"/>
   <path id="path1124" d="m773.45 316.8 4.3894 4.4692s-0.0794 0.22336-0.15929 0.30609c-0.0957 0.0991-0.35991 0.2035-0.35991 0.2035l-4.3814-4.5115" fill="none" stop-color="#000000" stroke="#f00" stroke-width=".5" style="font-variation-settings:normal"/>
   <path id="path1130" d="m790.73 315.59c-6.8233-6.2259-13.231 0.90415-13.231 0.90415l1.1062 1.0852s5.3828-5.9951 10.995-0.8733" fill="none" stop-color="#000000" stroke="#f00" stroke-width=".5" style="font-variation-settings:normal"/>
   <path id="path1132" d="m777.74 316.8-2.1346 2.1734m-0.50457 0.51375-1.7503 1.7821s0.0794 0.22336 0.1593 0.30609c0.0957 0.0991 0.3599 0.2035 0.3599 0.2035l1.7218-1.7729m0.50353-0.51848 2.1561-2.2201" fill="none" stop-color="#000000" stroke="#f00" stroke-width=".5" style="font-variation-settings:normal"/>
   <path id="path1138" d="m777.18 319.39 3.0363-0.9998s-0.0756 0.51112-0.0359 0.48973c0.0397-0.0214 2.663-0.43829 2.663-0.43829l-3.3784 1.1589 0.1135-0.48022z" fill="#ffa500" fill-rule="evenodd" stop-color="#000000" style="font-variation-settings:normal"/>
   <path id="path1140" d="m775.57 321.31 0.17989 3.1916s-0.47413-0.20534-0.46375-0.16143c0.0104 0.0439-0.26589 2.6857-0.26589 2.6857l-0.245-3.5632 0.43448 0.23392z" fill="#ffa500" fill-rule="evenodd" stop-color="#000000" style="font-variation-settings:normal"/>
   <path id="path1142" d="m773.12 319.17-3.0362-0.9998s0.0756 0.51112 0.0359 0.48973c-0.0397-0.0214-2.663-0.43829-2.663-0.43829l3.3784 1.1589-0.11349-0.48022z" fill="#ffa500" fill-rule="evenodd" stop-color="#000000" style="font-variation-settings:normal"/>
   <path id="path1144" d="m778.37 321.92 3.4142 2.8576-0.54047 0.22563 2.5049 2.7566-3.8351-3.103 0.60005-0.18663z" fill="#ffa500" fill-rule="evenodd" stop-color="#000000" style="font-variation-settings:normal"/>
   <path id="path1146" d="m772.52 321.92-3.4142 2.8576 0.54047 0.22563-2.5049 2.7566 3.8351-3.103-0.60005-0.18663z" fill="#ffa500" fill-rule="evenodd" stop-color="#000000" style="font-variation-settings:normal"/>
   <path id="path1148" d="m779.37 320.24 4.4492 0.75998-0.39707 0.47425 3.1546 0.56289-0.33946 0.5183 3.7478 0.96775-4.8526-0.52509 0.4262-0.56122-3.0776-0.49167 0.36101-0.63715z" fill="#ffa500" fill-rule="evenodd" stop-color="#000000" style="font-variation-settings:normal"/>
   <path id="path1150" d="m771.85 320.24-4.4492 0.75998 0.39707 0.47425-3.1546 0.56289 0.33946 0.5183-3.7478 0.96775 4.8526-0.52509-0.4262-0.56122 3.0776-0.49167-0.36101-0.63715z" fill="#ffa500" fill-rule="evenodd" stop-color="#000000" style="font-variation-settings:normal"/>
  </g>
  <g id="g1225" transform="translate(-98.936 -99.364)">
   <g id="g1223" transform="translate(237.46 -248.13)" stroke="#000">
    <circle id="circle1217" transform="rotate(-90)" cx="-432.98" cy="43.62" r="2.7576" stroke-width="1.8335"/>
    <circle id="circle1219" transform="rotate(-90)" cx="-414.36" cy="43.62" r="2.7576" stroke-width="1.8335"/>
    <path id="path1221" d="m48.263 412.56v22.208" fill="none" stroke-width="2"/>
   </g>
  </g>
  <path id="path1227" d="m182.09 88.05v22.432" fill="none" stroke="#000" stroke-width="2"/>
  <g id="g843" transform="matrix(.05 0 0 .05 121.54 311)">
   <ellipse id="path2203" cx="182.45" cy="175.32" rx="87.058" ry="87.024" fill="#f4ff76" stroke-width="3.7795"/>
   <path id="light-bulb-18-icon-6" d="m218.99 331.26h-72.511c-5.082 0-9.201 4.12-9.201 9.203 0 5.082 4.119 9.201 9.201 9.201h72.511c5.083 0 9.202-4.119 9.202-9.201 0-5.083-4.119-9.203-9.202-9.203zm-1.654 30.637h-69.201c-5.082 0-9.201 4.121-9.201 9.202 0 5.083 4.119 9.202 9.201 9.202h69.201c5.082 0 9.201-4.119 9.201-9.202 0-5.081-4.119-9.202-9.201-9.202zm-68.726 30.211c17.915 16.562 19.76 19.889 26.911 19.889h13.774c6.99 0 8.714-3.084 27.564-19.889zm138.88-220.48c0 62.305-53.581 97.22-53.581 146.39h-24.4c0.021-60.599 53.142-92.516 53.142-146.39 0-100.84-159.83-101-159.83 0 0 53.823 52.2 84.366 53.409 146.39h-24.668c0-49.168-53.581-84.083-53.581-146.39-1e-3 -133.9 209.51-134.04 209.51 0zm-91.496-126.52h-25.063v-45.112h25.063zm86.061-21.142-22.084-11.85-22.056 41.103 22.085 11.85zm64.091 62.072-14.599-20.372-40.099 28.739 14.598 20.371zm4.426 158.1-45.115-18.278-9.409 23.229 45.116 18.277zm15.008-88.586h-51.125v25.062h51.125zm-237.91-102.33-22.056-41.103-22.084 11.85 22.055 41.103zm-53.532 41.186-40.101-28.739-14.599 20.372 40.1 28.738zm-4.166 152.49-10.278-22.857-45.116 20.283 10.276 22.857zm-18.84-91.345h-51.127v25.062h51.127z"/>
  </g>
  <g id="g1943" transform="matrix(.05 0 0 .05 33.714 311)">
   <ellipse id="ellipse1939" cx="182.45" cy="175.32" rx="87.058" ry="87.024" fill="#f4ff76" stroke-width="3.7795"/>
   <path id="path1941" d="m218.99 331.26h-72.511c-5.082 0-9.201 4.12-9.201 9.203 0 5.082 4.119 9.201 9.201 9.201h72.511c5.083 0 9.202-4.119 9.202-9.201 0-5.083-4.119-9.203-9.202-9.203zm-1.654 30.637h-69.201c-5.082 0-9.201 4.121-9.201 9.202 0 5.083 4.119 9.202 9.201 9.202h69.201c5.082 0 9.201-4.119 9.201-9.202 0-5.081-4.119-9.202-9.201-9.202zm-68.726 30.211c17.915 16.562 19.76 19.889 26.911 19.889h13.774c6.99 0 8.714-3.084 27.564-19.889zm138.88-220.48c0 62.305-53.581 97.22-53.581 146.39h-24.4c0.021-60.599 53.142-92.516 53.142-146.39 0-100.84-159.83-101-159.83 0 0 53.823 52.2 84.366 53.409 146.39h-24.668c0-49.168-53.581-84.083-53.581-146.39-1e-3 -133.9 209.51-134.04 209.51 0zm-91.496-126.52h-25.063v-45.112h25.063zm86.061-21.142-22.084-11.85-22.056 41.103 22.085 11.85zm64.091 62.072-14.599-20.372-40.099 28.739 14.598 20.371zm4.426 158.1-45.115-18.278-9.409 23.229 45.116 18.277zm15.008-88.586h-51.125v25.062h51.125zm-237.91-102.33-22.056-41.103-22.084 11.85 22.055 41.103zm-53.532 41.186-40.101-28.739-14.599 20.372 40.1 28.738zm-4.166 152.49-10.278-22.857-45.116 20.283 10.276 22.857zm-18.84-91.345h-51.127v25.062h51.127z"/>
  </g>
  <g id="g1949" transform="matrix(.05 0 0 .05 227.98 311)">
   <ellipse id="ellipse1945" cx="182.45" cy="175.32" rx="87.058" ry="87.024" fill="#f4ff76" stroke-width="3.7795"/>
   <path id="path1947" d="m218.99 331.26h-72.511c-5.082 0-9.201 4.12-9.201 9.203 0 5.082 4.119 9.201 9.201 9.201h72.511c5.083 0 9.202-4.119 9.202-9.201 0-5.083-4.119-9.203-9.202-9.203zm-1.654 30.637h-69.201c-5.082 0-9.201 4.121-9.201 9.202 0 5.083 4.119 9.202 9.201 9.202h69.201c5.082 0 9.201-4.119 9.201-9.202 0-5.081-4.119-9.202-9.201-9.202zm-68.726 30.211c17.915 16.562 19.76 19.889 26.911 19.889h13.774c6.99 0 8.714-3.084 27.564-19.889zm138.88-220.48c0 62.305-53.581 97.22-53.581 146.39h-24.4c0.021-60.599 53.142-92.516 53.142-146.39 0-100.84-159.83-101-159.83 0 0 53.823 52.2 84.366 53.409 146.39h-24.668c0-49.168-53.581-84.083-53.581-146.39-1e-3 -133.9 209.51-134.04 209.51 0zm-91.496-126.52h-25.063v-45.112h25.063zm86.061-21.142-22.084-11.85-22.056 41.103 22.085 11.85zm64.091 62.072-14.599-20.372-40.099 28.739 14.598 20.371zm4.426 158.1-45.115-18.278-9.409 23.229 45.116 18.277zm15.008-88.586h-51.125v25.062h51.125zm-237.91-102.33-22.056-41.103-22.084 11.85 22.055 41.103zm-53.532 41.186-40.101-28.739-14.599 20.372 40.1 28.738zm-4.166 152.49-10.278-22.857-45.116 20.283 10.276 22.857zm-18.84-91.345h-51.127v25.062h51.127z"/>
  </g>
 </g>
 <g id="g2199" transform="matrix(.5 0 0 .5 432.68 6.0382)">
  <g id="g2039" transform="matrix(1.0011 0 0 1.0011 150.87 -15.967)" fill="none" stroke="#000" stroke-width="2">
   <circle id="circle2035" cx="31.017" cy="40.041" r="9.6468"/>
   <circle id="circle2037" cx="31.017" cy="59.627" r="9.6468"/>
  </g>
  <path id="path2041" d="m182.09 14.729v-9.342" fill="none" stroke="#000" stroke-width="2"/>
  <path id="path2043" d="m76.12 111.91h215" fill="none" stroke="#000" stroke-width="8"/>
  <rect id="rect2045" x=".5" y="130.83" width="173.24" height="133.19" fill="none" stroke="#000"/>
  <path id="path2047" d="m87.12 109.77v56.091" fill="none" stroke="#000" stroke-width="2"/>
  <path id="path2049" d="m87.12 195.32v-7" fill="none" stroke="#000" stroke-width="2"/>
  <rect id="rect2051" x="194.5" y="130.83" width="173.24" height="133.19" fill="none" stroke="#000"/>
  <path id="path2053" d="m217.07 308.42h40.105l-20.052 34.732z" fill="none" stroke="#000" stroke-width="2"/>
  <path id="path2055" d="m237.12 230.22v78.263" fill="none" stroke="#000" stroke-width="2"/>
  <path id="path2057" d="m281.12 110.27v54.645" fill="none" stroke="#000" stroke-width="2"/>
  <path id="path2059" d="m281.12 195.32v-7" fill="none" stroke="#000" stroke-width="2"/>
  <circle id="circle2061" transform="rotate(-90)" cx="-3.6743" cy="182.09" r="2.7576" stroke="#000" stroke-width="1.8335"/>
  <g id="g2069" transform="translate(87.215 -205.85)" stroke="#000">
   <circle id="circle2063" transform="rotate(-90)" cx="-432.98" cy="43.62" r="2.7576" stroke-width="1.8335"/>
   <circle id="circle2065" transform="rotate(-90)" cx="-414.36" cy="43.62" r="2.7576" stroke-width="1.8335"/>
   <path id="path2067" d="m48.263 412.56v22.208" fill="none" stroke-width="2"/>
  </g>
  <g id="g2077" transform="translate(193.45 -205.85)" stroke="#000">
   <circle id="circle2071" transform="rotate(-90)" cx="-432.98" cy="43.62" r="2.7576" stroke-width="1.8335"/>
   <circle id="circle2073" transform="rotate(-90)" cx="-414.36" cy="43.62" r="2.7576" stroke-width="1.8335"/>
   <path id="path2075" d="m48.263 412.56v22.208" fill="none" stroke-width="2"/>
  </g>
  <g id="g2085" transform="translate(43.446 -248.13)" stroke="#000">
   <circle id="circle2079" transform="rotate(-90)" cx="-432.98" cy="43.62" r="2.7576" stroke-width="1.8335"/>
   <circle id="circle2081" transform="rotate(-90)" cx="-414.36" cy="43.62" r="2.7576" stroke-width="1.8335"/>
   <path id="path2083" d="m48.263 412.56v22.208" fill="none" stroke-width="2"/>
  </g>
  <g id="g2095">
   <g id="g2093" transform="translate(237.46 -248.13)" stroke="#000">
    <circle id="circle2087" transform="rotate(-90)" cx="-432.98" cy="43.62" r="2.7576" stroke-width="1.8335"/>
    <circle id="circle2089" transform="rotate(-90)" cx="-414.36" cy="43.62" r="2.7576" stroke-width="1.8335"/>
    <path id="path2091" d="m48.263 412.56v22.208" fill="none" stroke-width="2"/>
   </g>
  </g>
  <g id="g2103" transform="translate(-.5 -205.85)" fill="none" stroke="#000">
   <path id="path2097" d="m24.66 403.17h125.92" stroke-width="8"/>
   <path id="path2099" d="m43.62 406.17v5.7999" stroke-width="2"/>
   <path id="path2101" d="m131.61 406.17v5.7999" stroke-width="2"/>
  </g>
  <path id="path2105" d="m87.12 195.32v-7" fill="none" stroke="#000" stroke-width="2"/>
  <g id="g2113" transform="translate(193.5 -205.85)" fill="none" stroke="#000">
   <path id="path2107" d="m24.66 403.17h125.92" stroke-width="8"/>
   <path id="path2109" d="m43.62 406.17v5.7999" stroke-width="2"/>
   <path id="path2111" d="m131.61 406.17v5.7999" stroke-width="2"/>
  </g>
  <path id="path2115" d="m182.09 64.3v-10.995" fill="none" stroke="#000" stroke-width="2"/>
  <g id="g2123" transform="translate(-.71377 -205.85)" stroke="#000">
   <circle id="circle2117" transform="rotate(-90)" cx="-432.98" cy="43.62" r="2.7576" stroke-width="1.8335"/>
   <circle id="circle2119" transform="rotate(-90)" cx="-414.36" cy="43.62" r="2.7576" stroke-width="1.8335"/>
   <path id="path2121" d="m48.263 412.56v22.208" fill="none" stroke-width="2"/>
  </g>
  <path id="path2125" d="m22.801 308.42h40.105l-20.052 34.732z" fill="none" stroke="#000" stroke-width="2"/>
  <path id="path2127" d="m42.853 229.79v78.542" fill="none" stroke="#000" stroke-width="2"/>
  <g id="g2135" transform="translate(281.45 -205.85)" stroke="#000">
   <circle id="circle2129" transform="rotate(-90)" cx="-432.98" cy="43.62" r="2.7576" stroke-width="1.8335"/>
   <circle id="circle2131" transform="rotate(-90)" cx="-414.36" cy="43.62" r="2.7576" stroke-width="1.8335"/>
   <path id="path2133" d="m48.263 412.56v22.208" fill="none" stroke-width="2"/>
  </g>
  <path id="path2137" d="m110.63 308.42h40.105l-20.052 34.732z" fill="none" stroke="#000" stroke-width="2"/>
  <path id="path2139" d="m130.68 229.79v78.595" fill="none" stroke="#000" stroke-width="2"/>
  <path id="path2141" d="m345.09 308.42h-40.105l20.052 34.732z" fill="none" stroke="#000" stroke-width="2"/>
  <path id="path2143" d="m325.04 229.79v78.288" fill="none" stroke="#000" stroke-width="2"/>
  <g id="g2167" transform="translate(-450.56)">
   <path id="path2145" d="m760.47 315.59c6.8233-6.2259 13.231 0.90415 13.231 0.90415l-1.1062 1.0852s-5.3828-5.9951-10.995-0.8733" fill="none" stop-color="#000000" stroke="#f00" stroke-width=".5" style="font-variation-settings:normal"/>
   <path id="path2147" d="m773.45 316.8 4.3894 4.4692s-0.0794 0.22336-0.15929 0.30609c-0.0957 0.0991-0.35991 0.2035-0.35991 0.2035l-4.3814-4.5115" fill="none" stop-color="#000000" stroke="#f00" stroke-width=".5" style="font-variation-settings:normal"/>
   <path id="path2149" d="m790.73 315.59c-6.8233-6.2259-13.231 0.90415-13.231 0.90415l1.1062 1.0852s5.3828-5.9951 10.995-0.8733" fill="none" stop-color="#000000" stroke="#f00" stroke-width=".5" style="font-variation-settings:normal"/>
   <path id="path2151" d="m777.74 316.8-2.1346 2.1734m-0.50457 0.51375-1.7503 1.7821s0.0794 0.22336 0.1593 0.30609c0.0957 0.0991 0.3599 0.2035 0.3599 0.2035l1.7218-1.7729m0.50353-0.51848 2.1561-2.2201" fill="none" stop-color="#000000" stroke="#f00" stroke-width=".5" style="font-variation-settings:normal"/>
   <path id="path2153" d="m777.18 319.39 3.0363-0.9998s-0.0756 0.51112-0.0359 0.48973c0.0397-0.0214 2.663-0.43829 2.663-0.43829l-3.3784 1.1589 0.1135-0.48022z" fill="#ffa500" fill-rule="evenodd" stop-color="#000000" style="font-variation-settings:normal"/>
   <path id="path2155" d="m775.57 321.31 0.17989 3.1916s-0.47413-0.20534-0.46375-0.16143c0.0104 0.0439-0.26589 2.6857-0.26589 2.6857l-0.245-3.5632 0.43448 0.23392z" fill="#ffa500" fill-rule="evenodd" stop-color="#000000" style="font-variation-settings:normal"/>
   <path id="path2157" d="m773.12 319.17-3.0362-0.9998s0.0756 0.51112 0.0359 0.48973c-0.0397-0.0214-2.663-0.43829-2.663-0.43829l3.3784 1.1589-0.11349-0.48022z" fill="#ffa500" fill-rule="evenodd" stop-color="#000000" style="font-variation-settings:normal"/>
   <path id="path2159" d="m778.37 321.92 3.4142 2.8576-0.54047 0.22563 2.5049 2.7566-3.8351-3.103 0.60005-0.18663z" fill="#ffa500" fill-rule="evenodd" stop-color="#000000" style="font-variation-settings:normal"/>
   <path id="path2161" d="m772.52 321.92-3.4142 2.8576 0.54047 0.22563-2.5049 2.7566 3.8351-3.103-0.60005-0.18663z" fill="#ffa500" fill-rule="evenodd" stop-color="#000000" style="font-variation-settings:normal"/>
   <path id="path2163" d="m779.37 320.24 4.4492 0.75998-0.39707 0.47425 3.1546 0.56289-0.33946 0.5183 3.7478 0.96775-4.8526-0.52509 0.4262-0.56122-3.0776-0.49167 0.36101-0.63715z" fill="#ffa500" fill-rule="evenodd" stop-color="#000000" style="font-variation-settings:normal"/>
   <path id="path2165" d="m771.85 320.24-4.4492 0.75998 0.39707 0.47425-3.1546 0.56289 0.33946 0.5183-3.7478 0.96775 4.8526-0.52509-0.4262-0.56122 3.0776-0.49167-0.36101-0.63715z" fill="#ffa500" fill-rule="evenodd" stop-color="#000000" style="font-variation-settings:normal"/>
  </g>
  <g id="g2177" transform="translate(-98.936 -99.364)">
   <g id="g2175" transform="translate(237.46 -248.13)" stroke="#000">
    <circle id="circle2169" transform="rotate(-90)" cx="-432.98" cy="43.62" r="2.7576" stroke-width="1.8335"/>
    <circle id="circle2171" transform="rotate(-90)" cx="-414.36" cy="43.62" r="2.7576" stroke-width="1.8335"/>
    <path id="path2173" d="m48.263 412.56v22.208" fill="none" stroke-width="2"/>
   </g>
  </g>
  <path id="path2179" d="m182.09 88.05v22.432" fill="none" stroke="#000" stroke-width="2"/>
  <g id="g2185" transform="matrix(.05 0 0 .05 121.54 311)">
   <ellipse id="ellipse2181" cx="182.45" cy="175.32" rx="87.058" ry="87.024" fill="#f4ff76" stroke-width="3.7795"/>
   <path id="path2183" d="m218.99 331.26h-72.511c-5.082 0-9.201 4.12-9.201 9.203 0 5.082 4.119 9.201 9.201 9.201h72.511c5.083 0 9.202-4.119 9.202-9.201 0-5.083-4.119-9.203-9.202-9.203zm-1.654 30.637h-69.201c-5.082 0-9.201 4.121-9.201 9.202 0 5.083 4.119 9.202 9.201 9.202h69.201c5.082 0 9.201-4.119 9.201-9.202 0-5.081-4.119-9.202-9.201-9.202zm-68.726 30.211c17.915 16.562 19.76 19.889 26.911 19.889h13.774c6.99 0 8.714-3.084 27.564-19.889zm138.88-220.48c0 62.305-53.581 97.22-53.581 146.39h-24.4c0.021-60.599 53.142-92.516 53.142-146.39 0-100.84-159.83-101-159.83 0 0 53.823 52.2 84.366 53.409 146.39h-24.668c0-49.168-53.581-84.083-53.581-146.39-1e-3 -133.9 209.51-134.04 209.51 0zm-91.496-126.52h-25.063v-45.112h25.063zm86.061-21.142-22.084-11.85-22.056 41.103 22.085 11.85zm64.091 62.072-14.599-20.372-40.099 28.739 14.598 20.371zm4.426 158.1-45.115-18.278-9.409 23.229 45.116 18.277zm15.008-88.586h-51.125v25.062h51.125zm-237.91-102.33-22.056-41.103-22.084 11.85 22.055 41.103zm-53.532 41.186-40.101-28.739-14.599 20.372 40.1 28.738zm-4.166 152.49-10.278-22.857-45.116 20.283 10.276 22.857zm-18.84-91.345h-51.127v25.062h51.127z"/>
  </g>
  <g id="g2191" transform="matrix(.05 0 0 .05 33.714 311)">
   <ellipse id="ellipse2187" cx="182.45" cy="175.32" rx="87.058" ry="87.024" fill="#f4ff76" stroke-width="3.7795"/>
   <path id="path2189" d="m218.99 331.26h-72.511c-5.082 0-9.201 4.12-9.201 9.203 0 5.082 4.119 9.201 9.201 9.201h72.511c5.083 0 9.202-4.119 9.202-9.201 0-5.083-4.119-9.203-9.202-9.203zm-1.654 30.637h-69.201c-5.082 0-9.201 4.121-9.201 9.202 0 5.083 4.119 9.202 9.201 9.202h69.201c5.082 0 9.201-4.119 9.201-9.202 0-5.081-4.119-9.202-9.201-9.202zm-68.726 30.211c17.915 16.562 19.76 19.889 26.911 19.889h13.774c6.99 0 8.714-3.084 27.564-19.889zm138.88-220.48c0 62.305-53.581 97.22-53.581 146.39h-24.4c0.021-60.599 53.142-92.516 53.142-146.39 0-100.84-159.83-101-159.83 0 0 53.823 52.2 84.366 53.409 146.39h-24.668c0-49.168-53.581-84.083-53.581-146.39-1e-3 -133.9 209.51-134.04 209.51 0zm-91.496-126.52h-25.063v-45.112h25.063zm86.061-21.142-22.084-11.85-22.056 41.103 22.085 11.85zm64.091 62.072-14.599-20.372-40.099 28.739 14.598 20.371zm4.426 158.1-45.115-18.278-9.409 23.229 45.116 18.277zm15.008-88.586h-51.125v25.062h51.125zm-237.91-102.33-22.056-41.103-22.084 11.85 22.055 41.103zm-53.532 41.186-40.101-28.739-14.599 20.372 40.1 28.738zm-4.166 152.49-10.278-22.857-45.116 20.283 10.276 22.857zm-18.84-91.345h-51.127v25.062h51.127z"/>
  </g>
  <g id="g2197" transform="matrix(.05 0 0 .05 227.98 311)">
   <ellipse id="ellipse2193" cx="182.45" cy="175.32" rx="87.058" ry="87.024" fill="#f4ff76" stroke-width="3.7795"/>
   <path id="path2195" d="m218.99 331.26h-72.511c-5.082 0-9.201 4.12-9.201 9.203 0 5.082 4.119 9.201 9.201 9.201h72.511c5.083 0 9.202-4.119 9.202-9.201 0-5.083-4.119-9.203-9.202-9.203zm-1.654 30.637h-69.201c-5.082 0-9.201 4.121-9.201 9.202 0 5.083 4.119 9.202 9.201 9.202h69.201c5.082 0 9.201-4.119 9.201-9.202 0-5.081-4.119-9.202-9.201-9.202zm-68.726 30.211c17.915 16.562 19.76 19.889 26.911 19.889h13.774c6.99 0 8.714-3.084 27.564-19.889zm138.88-220.48c0 62.305-53.581 97.22-53.581 146.39h-24.4c0.021-60.599 53.142-92.516 53.142-146.39 0-100.84-159.83-101-159.83 0 0 53.823 52.2 84.366 53.409 146.39h-24.668c0-49.168-53.581-84.083-53.581-146.39-1e-3 -133.9 209.51-134.04 209.51 0zm-91.496-126.52h-25.063v-45.112h25.063zm86.061-21.142-22.084-11.85-22.056 41.103 22.085 11.85zm64.091 62.072-14.599-20.372-40.099 28.739 14.598 20.371zm4.426 158.1-45.115-18.278-9.409 23.229 45.116 18.277zm15.008-88.586h-51.125v25.062h51.125zm-237.91-102.33-22.056-41.103-22.084 11.85 22.055 41.103zm-53.532 41.186-40.101-28.739-14.599 20.372 40.1 28.738zm-4.166 152.49-10.278-22.857-45.116 20.283 10.276 22.857zm-18.84-91.345h-51.127v25.062h51.127z"/>
  </g>
 </g>
 <g id="g2205" transform="matrix(.50055 0 0 .50055 508.11 176.93)" fill="none" stroke="#000" stroke-width="2">
  <circle id="circle2201" cx="31.017" cy="40.041" r="9.6468"/>
  <circle id="circle2203" cx="31.017" cy="59.627" r="9.6468"/>
 </g>
 <path id="path2207" d="m523.73 192.28v-4.671" fill="none" stroke="#000"/>
 <path id="path2209" d="m470.74 240.87h107.5" fill="none" stroke="#000" stroke-width="4"/>
 <rect id="rect2211" x="432.93" y="250.33" width="86.62" height="66.596" fill="none" stroke="#000" stroke-width=".5"/>
 <path id="path2213" d="m476.24 239.8v28.046" fill="none" stroke="#000"/>
 <path id="path2215" d="m476.24 282.57v-3.5" fill="none" stroke="#000"/>
 <rect id="rect2217" x="529.93" y="250.33" width="86.62" height="66.596" fill="none" stroke="#000" stroke-width=".5"/>
 <path id="path2219" d="m541.21 339.13h20.052l-10.026 17.366z" fill="none" stroke="#000"/>
 <path id="path2221" d="m551.24 300.03v39.132" fill="none" stroke="#000"/>
 <path id="path2223" d="m573.24 240.05v27.323" fill="none" stroke="#000"/>
 <path id="path2225" d="m573.24 282.57v-3.5" fill="none" stroke="#000"/>
 <circle id="circle2227" transform="rotate(-90)" cx="-186.75" cy="523.73" r="1.3788" stroke="#000" stroke-width=".91673"/>
 <g id="g2235" transform="matrix(.5 0 0 .5 476.29 81.988)" stroke="#000">
  <circle id="circle2229" transform="rotate(-90)" cx="-432.98" cy="43.62" r="2.7576" stroke-width="1.8335"/>
  <circle id="circle2231" transform="rotate(-90)" cx="-414.36" cy="43.62" r="2.7576" stroke-width="1.8335"/>
  <path id="path2233" d="m48.263 412.56v22.208" fill="none" stroke-width="2"/>
 </g>
 <g id="g2243" transform="matrix(.5 0 0 .5 529.41 81.988)" stroke="#000">
  <circle id="circle2237" transform="rotate(-90)" cx="-432.98" cy="43.62" r="2.7576" stroke-width="1.8335"/>
  <circle id="circle2239" transform="rotate(-90)" cx="-414.36" cy="43.62" r="2.7576" stroke-width="1.8335"/>
  <path id="path2241" d="m48.263 412.56v22.208" fill="none" stroke-width="2"/>
 </g>
 <g id="g2251" transform="matrix(.5 0 0 .5 454.4 60.848)" stroke="#000">
  <circle id="circle2245" transform="rotate(-90)" cx="-432.98" cy="43.62" r="2.7576" stroke-width="1.8335"/>
  <circle id="circle2247" transform="rotate(-90)" cx="-414.36" cy="43.62" r="2.7576" stroke-width="1.8335"/>
  <path id="path2249" d="m48.263 412.56v22.208" fill="none" stroke-width="2"/>
 </g>
 <circle id="circle2253" transform="rotate(-90)" cx="-277.34" cy="573.22" r="1.3788" fill="#f00" stroke="#f00" stroke-width=".91673"/>
 <circle id="circle2255" transform="rotate(-90)" cx="-268.03" cy="573.22" r="1.3788" fill="#f00" stroke="#f00" stroke-width=".91673"/>
 <path id="path2257" d="m581.57 268.27-6.7303 8.8321" fill="none" stroke="#f00"/>
 <g id="g2269" transform="matrix(.5 0 0 .5 432.43 81.988)" fill="none" stroke="#000">
  <path id="path2263" d="m24.66 403.17h125.92" stroke-width="8"/>
  <path id="path2265" d="m43.62 406.17v5.7999" stroke-width="2"/>
  <path id="path2267" d="m131.61 406.17v5.7999" stroke-width="2"/>
 </g>
 <path id="path2271" d="m476.24 282.57v-3.5" fill="none" stroke="#000"/>
 <g id="g2279" transform="matrix(.5 0 0 .5 529.43 81.988)" fill="none" stroke="#000">
  <path id="path2273" d="m24.66 403.17h125.92" stroke-width="8"/>
  <path id="path2275" d="m43.62 406.17v5.7999" stroke-width="2"/>
  <path id="path2277" d="m131.61 406.17v5.7999" stroke-width="2"/>
 </g>
 <path id="path2281" d="m523.73 217.06v-5.4977" fill="none" stroke="#000"/>
 <g id="g2289" transform="matrix(.5 0 0 .5 432.32 81.988)" stroke="#000">
  <circle id="circle2283" transform="rotate(-90)" cx="-432.98" cy="43.62" r="2.7576" stroke-width="1.8335"/>
  <circle id="circle2285" transform="rotate(-90)" cx="-414.36" cy="43.62" r="2.7576" stroke-width="1.8335"/>
  <path id="path2287" d="m48.263 412.56v22.208" fill="none" stroke-width="2"/>
 </g>
 <path id="path2291" d="m444.08 339.13h20.052l-10.026 17.366z" fill="none" stroke="#000"/>
 <path id="path2293" d="m454.11 299.81v39.271" fill="none" stroke="#000"/>
 <g id="g2301" transform="matrix(.5 0 0 .5 573.41 81.988)" stroke="#000">
  <circle id="circle2295" transform="rotate(-90)" cx="-432.98" cy="43.62" r="2.7576" stroke-width="1.8335"/>
  <circle id="circle2297" transform="rotate(-90)" cx="-414.36" cy="43.62" r="2.7576" stroke-width="1.8335"/>
  <path id="path2299" d="m48.263 412.56v22.208" fill="none" stroke-width="2"/>
 </g>
 <path id="path2303" d="m487.99 339.13h20.052l-10.026 17.366z" fill="none" stroke="#000"/>
 <path id="path2305" d="m498.02 299.81v39.297" fill="none" stroke="#000"/>
 <path id="path2307" d="m605.22 339.13h-20.052l10.026 17.366z" fill="none" stroke="#000"/>
 <path id="path2309" d="m595.2 299.81v39.144" fill="none" stroke="#000"/>
 <g id="g2344" transform="matrix(.5 0 0 .5 383.21 135.23)">
  <g id="g2342" transform="translate(237.46 -248.13)" stroke="#000">
   <circle id="circle2336" transform="rotate(-90)" cx="-432.98" cy="43.62" r="2.7576" stroke-width="1.8335"/>
   <circle id="circle2338" transform="rotate(-90)" cx="-414.36" cy="43.62" r="2.7576" stroke-width="1.8335"/>
   <path id="path2340" d="m48.263 412.56v22.208" fill="none" stroke-width="2"/>
  </g>
 </g>
 <path id="path2346" d="m523.73 228.94v11.216" fill="none" stroke="#000"/>
 <g id="g2352" transform="matrix(.025 0 0 .025 493.45 340.41)">
  <ellipse id="ellipse2348" cx="182.45" cy="175.32" rx="87.058" ry="87.024" fill="#f4ff76" stroke-width="3.7795"/>
  <path id="path2350" d="m218.99 331.26h-72.511c-5.082 0-9.201 4.12-9.201 9.203 0 5.082 4.119 9.201 9.201 9.201h72.511c5.083 0 9.202-4.119 9.202-9.201 0-5.083-4.119-9.203-9.202-9.203zm-1.654 30.637h-69.201c-5.082 0-9.201 4.121-9.201 9.202 0 5.083 4.119 9.202 9.201 9.202h69.201c5.082 0 9.201-4.119 9.201-9.202 0-5.081-4.119-9.202-9.201-9.202zm-68.726 30.211c17.915 16.562 19.76 19.889 26.911 19.889h13.774c6.99 0 8.714-3.084 27.564-19.889zm138.88-220.48c0 62.305-53.581 97.22-53.581 146.39h-24.4c0.021-60.599 53.142-92.516 53.142-146.39 0-100.84-159.83-101-159.83 0 0 53.823 52.2 84.366 53.409 146.39h-24.668c0-49.168-53.581-84.083-53.581-146.39-1e-3 -133.9 209.51-134.04 209.51 0zm-91.496-126.52h-25.063v-45.112h25.063zm86.061-21.142-22.084-11.85-22.056 41.103 22.085 11.85zm64.091 62.072-14.599-20.372-40.099 28.739 14.598 20.371zm4.426 158.1-45.115-18.278-9.409 23.229 45.116 18.277zm15.008-88.586h-51.125v25.062h51.125zm-237.91-102.33-22.056-41.103-22.084 11.85 22.055 41.103zm-53.532 41.186-40.101-28.739-14.599 20.372 40.1 28.738zm-4.166 152.49-10.278-22.857-45.116 20.283 10.276 22.857zm-18.84-91.345h-51.127v25.062h51.127z"/>
 </g>
 <g id="g2358" transform="matrix(.025 0 0 .025 449.54 340.41)">
  <ellipse id="ellipse2354" cx="182.45" cy="175.32" rx="87.058" ry="87.024" fill="#f4ff76" stroke-width="3.7795"/>
  <path id="path2356" d="m218.99 331.26h-72.511c-5.082 0-9.201 4.12-9.201 9.203 0 5.082 4.119 9.201 9.201 9.201h72.511c5.083 0 9.202-4.119 9.202-9.201 0-5.083-4.119-9.203-9.202-9.203zm-1.654 30.637h-69.201c-5.082 0-9.201 4.121-9.201 9.202 0 5.083 4.119 9.202 9.201 9.202h69.201c5.082 0 9.201-4.119 9.201-9.202 0-5.081-4.119-9.202-9.201-9.202zm-68.726 30.211c17.915 16.562 19.76 19.889 26.911 19.889h13.774c6.99 0 8.714-3.084 27.564-19.889zm138.88-220.48c0 62.305-53.581 97.22-53.581 146.39h-24.4c0.021-60.599 53.142-92.516 53.142-146.39 0-100.84-159.83-101-159.83 0 0 53.823 52.2 84.366 53.409 146.39h-24.668c0-49.168-53.581-84.083-53.581-146.39-1e-3 -133.9 209.51-134.04 209.51 0zm-91.496-126.52h-25.063v-45.112h25.063zm86.061-21.142-22.084-11.85-22.056 41.103 22.085 11.85zm64.091 62.072-14.599-20.372-40.099 28.739 14.598 20.371zm4.426 158.1-45.115-18.278-9.409 23.229 45.116 18.277zm15.008-88.586h-51.125v25.062h51.125zm-237.91-102.33-22.056-41.103-22.084 11.85 22.055 41.103zm-53.532 41.186-40.101-28.739-14.599 20.372 40.1 28.738zm-4.166 152.49-10.278-22.857-45.116 20.283 10.276 22.857zm-18.84-91.345h-51.127v25.062h51.127z"/>
 </g>
 <g id="g2372" transform="matrix(.50055 0 0 .50055 711.37 -1.9453)" fill="none" stroke="#000" stroke-width="2">
  <circle id="circle2368" cx="31.017" cy="40.041" r="9.6468"/>
  <circle id="circle2370" cx="31.017" cy="59.627" r="9.6468"/>
 </g>
 <path id="path2374" d="m726.98 13.403v-4.671" fill="none" stroke="#000"/>
 <path id="path2376" d="m673.99 61.993h107.5" fill="none" stroke="#000" stroke-width="4"/>
 <rect id="rect2378" x="636.18" y="71.454" width="86.62" height="66.596" fill="none" stroke="#000" stroke-width=".5"/>
 <path id="path2380" d="m679.49 60.922v28.046" fill="none" stroke="#000"/>
 <path id="path2382" d="m679.49 103.7v-3.5" fill="none" stroke="#000"/>
 <rect id="rect2384" x="733.18" y="71.454" width="86.62" height="66.596" fill="none" stroke="#000" stroke-width=".5"/>
 <path id="path2386" d="m744.47 160.25h20.052l-10.026 17.366z" fill="none" stroke="#000"/>
 <path id="path2388" d="m754.49 121.15v39.132" fill="none" stroke="#000"/>
 <path id="path2390" d="m776.49 61.173v27.323" fill="none" stroke="#000"/>
 <path id="path2392" d="m776.49 103.7v-3.5" fill="none" stroke="#000"/>
 <circle id="circle2394" transform="rotate(-90)" cx="-7.8754" cy="726.98" r="1.3788" stroke="#000" stroke-width=".91673"/>
 <g id="g2402" transform="matrix(.5 0 0 .5 679.54 -96.887)" stroke="#000">
  <circle id="circle2396" transform="rotate(-90)" cx="-432.98" cy="43.62" r="2.7576" stroke-width="1.8335"/>
  <circle id="circle2398" transform="rotate(-90)" cx="-414.36" cy="43.62" r="2.7576" stroke-width="1.8335"/>
  <path id="path2400" d="m48.263 412.56v22.208" fill="none" stroke-width="2"/>
 </g>
 <g id="g2410" transform="matrix(.5 0 0 .5 732.66 -96.887)" stroke="#000">
  <circle id="circle2404" transform="rotate(-90)" cx="-432.98" cy="43.62" r="2.7576" stroke-width="1.8335"/>
  <circle id="circle2406" transform="rotate(-90)" cx="-414.36" cy="43.62" r="2.7576" stroke-width="1.8335"/>
  <path id="path2408" d="m48.263 412.56v22.208" fill="none" stroke-width="2"/>
 </g>
 <g id="g2418" transform="matrix(.5 0 0 .5 657.66 -118.03)" stroke="#000">
  <circle id="circle2412" transform="rotate(-90)" cx="-432.98" cy="43.62" r="2.7576" stroke-width="1.8335"/>
  <circle id="circle2414" transform="rotate(-90)" cx="-414.36" cy="43.62" r="2.7576" stroke-width="1.8335"/>
  <path id="path2416" d="m48.263 412.56v22.208" fill="none" stroke-width="2"/>
 </g>
 <g id="g2428" transform="matrix(.5 0 0 .5 635.93 6.0382)">
  <g id="g2426" transform="translate(237.46 -248.13)" stroke="#000">
   <circle id="circle2420" transform="rotate(-90)" cx="-432.98" cy="43.62" r="2.7576" stroke-width="1.8335"/>
   <circle id="circle2422" transform="rotate(-90)" cx="-414.36" cy="43.62" r="2.7576" stroke-width="1.8335"/>
   <path id="path2424" d="m48.263 412.56v22.208" fill="none" stroke-width="2"/>
  </g>
 </g>
 <g id="g2436" transform="matrix(.5 0 0 .5 635.68 -96.887)" fill="none" stroke="#000">
  <path id="path2430" d="m24.66 403.17h125.92" stroke-width="8"/>
  <path id="path2432" d="m43.62 406.17v5.7999" stroke-width="2"/>
  <path id="path2434" d="m131.61 406.17v5.7999" stroke-width="2"/>
 </g>
 <path id="path2438" d="m679.49 103.7v-3.5" fill="none" stroke="#000"/>
 <g id="g2446" transform="matrix(.5 0 0 .5 732.68 -96.887)" fill="none" stroke="#000">
  <path id="path2440" d="m24.66 403.17h125.92" stroke-width="8"/>
  <path id="path2442" d="m43.62 406.17v5.7999" stroke-width="2"/>
  <path id="path2444" d="m131.61 406.17v5.7999" stroke-width="2"/>
 </g>
 <path id="path2448" d="m726.98 38.188v-5.4977" fill="none" stroke="#000"/>
 <g id="g2456" transform="matrix(.5 0 0 .5 635.58 -96.887)" stroke="#000">
  <circle id="circle2450" transform="rotate(-90)" cx="-432.98" cy="43.62" r="2.7576" stroke-width="1.8335"/>
  <circle id="circle2452" transform="rotate(-90)" cx="-414.36" cy="43.62" r="2.7576" stroke-width="1.8335"/>
  <path id="path2454" d="m48.263 412.56v22.208" fill="none" stroke-width="2"/>
 </g>
 <path id="path2458" d="m647.34 160.25h20.052l-10.026 17.366z" fill="none" stroke="#000"/>
 <path id="path2460" d="m657.36 120.93v39.271" fill="none" stroke="#000"/>
 <circle id="circle2462" transform="rotate(-90)" cx="-119.6" cy="798.47" r="1.3788" fill="#f00" stroke="#f00" stroke-width=".91673"/>
 <circle id="circle2464" transform="rotate(-90)" cx="-110.29" cy="798.47" r="1.3788" fill="#f00" stroke="#f00" stroke-width=".91673"/>
 <path id="path2466" d="m805.75 110.12-5.4945 9.6495" fill="none" stroke="#f00"/>
 <path id="path2470" d="m691.25 160.25h20.052l-10.026 17.366z" fill="none" stroke="#000"/>
 <path id="path2472" d="m701.27 120.93v39.297" fill="none" stroke="#000"/>
 <path id="path2474" d="m808.48 160.25h-20.052l10.026 17.366z" fill="none" stroke="#000"/>
 <path id="path2476" d="m798.45 120.93v39.144" fill="none" stroke="#000"/>
 <g id="g2510" transform="matrix(.5 0 0 .5 586.47 -43.644)">
  <g id="g2508" transform="translate(237.46 -248.13)" stroke="#000">
   <circle id="circle2502" transform="rotate(-90)" cx="-432.98" cy="43.62" r="2.7576" stroke-width="1.8335"/>
   <circle id="circle2504" transform="rotate(-90)" cx="-414.36" cy="43.62" r="2.7576" stroke-width="1.8335"/>
   <path id="path2506" d="m48.263 412.56v22.208" fill="none" stroke-width="2"/>
  </g>
 </g>
 <path id="path2512" d="m726.98 50.063v11.216" fill="none" stroke="#000"/>
 <g id="g2518" transform="matrix(.025 0 0 .025 696.7 161.54)">
  <ellipse id="ellipse2514" cx="182.45" cy="175.32" rx="87.058" ry="87.024" fill="#f4ff76" stroke-width="3.7795"/>
  <path id="path2516" d="m218.99 331.26h-72.511c-5.082 0-9.201 4.12-9.201 9.203 0 5.082 4.119 9.201 9.201 9.201h72.511c5.083 0 9.202-4.119 9.202-9.201 0-5.083-4.119-9.203-9.202-9.203zm-1.654 30.637h-69.201c-5.082 0-9.201 4.121-9.201 9.202 0 5.083 4.119 9.202 9.201 9.202h69.201c5.082 0 9.201-4.119 9.201-9.202 0-5.081-4.119-9.202-9.201-9.202zm-68.726 30.211c17.915 16.562 19.76 19.889 26.911 19.889h13.774c6.99 0 8.714-3.084 27.564-19.889zm138.88-220.48c0 62.305-53.581 97.22-53.581 146.39h-24.4c0.021-60.599 53.142-92.516 53.142-146.39 0-100.84-159.83-101-159.83 0 0 53.823 52.2 84.366 53.409 146.39h-24.668c0-49.168-53.581-84.083-53.581-146.39-1e-3 -133.9 209.51-134.04 209.51 0zm-91.496-126.52h-25.063v-45.112h25.063zm86.061-21.142-22.084-11.85-22.056 41.103 22.085 11.85zm64.091 62.072-14.599-20.372-40.099 28.739 14.598 20.371zm4.426 158.1-45.115-18.278-9.409 23.229 45.116 18.277zm15.008-88.586h-51.125v25.062h51.125zm-237.91-102.33-22.056-41.103-22.084 11.85 22.055 41.103zm-53.532 41.186-40.101-28.739-14.599 20.372 40.1 28.738zm-4.166 152.49-10.278-22.857-45.116 20.283 10.276 22.857zm-18.84-91.345h-51.127v25.062h51.127z"/>
 </g>
 <g id="g2524" transform="matrix(.025 0 0 .025 652.79 161.54)">
  <ellipse id="ellipse2520" cx="182.45" cy="175.32" rx="87.058" ry="87.024" fill="#f4ff76" stroke-width="3.7795"/>
  <path id="path2522" d="m218.99 331.26h-72.511c-5.082 0-9.201 4.12-9.201 9.203 0 5.082 4.119 9.201 9.201 9.201h72.511c5.083 0 9.202-4.119 9.202-9.201 0-5.083-4.119-9.203-9.202-9.203zm-1.654 30.637h-69.201c-5.082 0-9.201 4.121-9.201 9.202 0 5.083 4.119 9.202 9.201 9.202h69.201c5.082 0 9.201-4.119 9.201-9.202 0-5.081-4.119-9.202-9.201-9.202zm-68.726 30.211c17.915 16.562 19.76 19.889 26.911 19.889h13.774c6.99 0 8.714-3.084 27.564-19.889zm138.88-220.48c0 62.305-53.581 97.22-53.581 146.39h-24.4c0.021-60.599 53.142-92.516 53.142-146.39 0-100.84-159.83-101-159.83 0 0 53.823 52.2 84.366 53.409 146.39h-24.668c0-49.168-53.581-84.083-53.581-146.39-1e-3 -133.9 209.51-134.04 209.51 0zm-91.496-126.52h-25.063v-45.112h25.063zm86.061-21.142-22.084-11.85-22.056 41.103 22.085 11.85zm64.091 62.072-14.599-20.372-40.099 28.739 14.598 20.371zm4.426 158.1-45.115-18.278-9.409 23.229 45.116 18.277zm15.008-88.586h-51.125v25.062h51.125zm-237.91-102.33-22.056-41.103-22.084 11.85 22.055 41.103zm-53.532 41.186-40.101-28.739-14.599 20.372 40.1 28.738zm-4.166 152.49-10.278-22.857-45.116 20.283 10.276 22.857zm-18.84-91.345h-51.127v25.062h51.127z"/>
 </g>
 <g id="g2530" transform="matrix(.025 0 0 .025 749.92 161.54)">
  <ellipse id="ellipse2526" cx="182.45" cy="175.32" rx="87.058" ry="87.024" fill="#f4ff76" stroke-width="3.7795"/>
  <path id="path2528" d="m218.99 331.26h-72.511c-5.082 0-9.201 4.12-9.201 9.203 0 5.082 4.119 9.201 9.201 9.201h72.511c5.083 0 9.202-4.119 9.202-9.201 0-5.083-4.119-9.203-9.202-9.203zm-1.654 30.637h-69.201c-5.082 0-9.201 4.121-9.201 9.202 0 5.083 4.119 9.202 9.201 9.202h69.201c5.082 0 9.201-4.119 9.201-9.202 0-5.081-4.119-9.202-9.201-9.202zm-68.726 30.211c17.915 16.562 19.76 19.889 26.911 19.889h13.774c6.99 0 8.714-3.084 27.564-19.889zm138.88-220.48c0 62.305-53.581 97.22-53.581 146.39h-24.4c0.021-60.599 53.142-92.516 53.142-146.39 0-100.84-159.83-101-159.83 0 0 53.823 52.2 84.366 53.409 146.39h-24.668c0-49.168-53.581-84.083-53.581-146.39-1e-3 -133.9 209.51-134.04 209.51 0zm-91.496-126.52h-25.063v-45.112h25.063zm86.061-21.142-22.084-11.85-22.056 41.103 22.085 11.85zm64.091 62.072-14.599-20.372-40.099 28.739 14.598 20.371zm4.426 158.1-45.115-18.278-9.409 23.229 45.116 18.277zm15.008-88.586h-51.125v25.062h51.125zm-237.91-102.33-22.056-41.103-22.084 11.85 22.055 41.103zm-53.532 41.186-40.101-28.739-14.599 20.372 40.1 28.738zm-4.166 152.49-10.278-22.857-45.116 20.283 10.276 22.857zm-18.84-91.345h-51.127v25.062h51.127z"/>
 </g>
 <g id="g2538" transform="matrix(.50055 0 0 .50055 711.37 176.93)" fill="none" stroke="#000" stroke-width="2">
  <circle id="circle2534" cx="31.017" cy="40.041" r="9.6468"/>
  <circle id="circle2536" cx="31.017" cy="59.627" r="9.6468"/>
 </g>
 <path id="path2540" d="m726.98 192.28v-4.671" fill="none" stroke="#000"/>
 <path id="path2542" d="m673.99 240.87h107.5" fill="none" stroke="#000" stroke-width="4"/>
 <rect id="rect2544" x="636.18" y="250.33" width="86.62" height="66.596" fill="none" stroke="#000" stroke-width=".5"/>
 <path id="path2546" d="m679.49 239.8v28.046" fill="none" stroke="#000"/>
 <path id="path2548" d="m679.49 282.57v-3.5" fill="none" stroke="#000"/>
 <rect id="rect2550" x="733.18" y="250.33" width="86.62" height="66.596" fill="none" stroke="#000" stroke-width=".5"/>
 <path id="path2552" d="m744.47 339.13h20.052l-10.026 17.366z" fill="none" stroke="#000"/>
 <path id="path2554" d="m754.49 300.03v39.132" fill="none" stroke="#000"/>
 <path id="path2556" d="m776.49 240.05v27.323" fill="none" stroke="#000"/>
 <path id="path2558" d="m776.49 282.57v-3.5" fill="none" stroke="#000"/>
 <circle id="circle2560" transform="rotate(-90)" cx="-186.75" cy="726.98" r="1.3788" stroke="#000" stroke-width=".91673"/>
 <g id="g2568" transform="matrix(.5 0 0 .5 679.54 81.988)" stroke="#000">
  <circle id="circle2562" transform="rotate(-90)" cx="-432.98" cy="43.62" r="2.7576" stroke-width="1.8335"/>
  <circle id="circle2564" transform="rotate(-90)" cx="-414.36" cy="43.62" r="2.7576" stroke-width="1.8335"/>
  <path id="path2566" d="m48.263 412.56v22.208" fill="none" stroke-width="2"/>
 </g>
 <g id="g2576" transform="matrix(.5 0 0 .5 732.66 81.988)" stroke="#000">
  <circle id="circle2570" transform="rotate(-90)" cx="-432.98" cy="43.62" r="2.7576" stroke-width="1.8335"/>
  <circle id="circle2572" transform="rotate(-90)" cx="-414.36" cy="43.62" r="2.7576" stroke-width="1.8335"/>
  <path id="path2574" d="m48.263 412.56v22.208" fill="none" stroke-width="2"/>
 </g>
 <g id="g2584" transform="matrix(.5 0 0 .5 657.66 60.848)" stroke="#000">
  <circle id="circle2578" transform="rotate(-90)" cx="-432.98" cy="43.62" r="2.7576" stroke-width="1.8335"/>
  <circle id="circle2580" transform="rotate(-90)" cx="-414.36" cy="43.62" r="2.7576" stroke-width="1.8335"/>
  <path id="path2582" d="m48.263 412.56v22.208" fill="none" stroke-width="2"/>
 </g>
 <g id="g2594" transform="matrix(.5 0 0 .5 635.93 184.91)">
  <g id="g2592" transform="translate(237.46 -248.13)" stroke="#000">
   <circle id="circle2586" transform="rotate(-90)" cx="-432.98" cy="43.62" r="2.7576" stroke-width="1.8335"/>
   <circle id="circle2588" transform="rotate(-90)" cx="-414.36" cy="43.62" r="2.7576" stroke-width="1.8335"/>
   <path id="path2590" d="m48.263 412.56v22.208" fill="none" stroke-width="2"/>
  </g>
 </g>
 <g id="g2602" transform="matrix(.5 0 0 .5 635.68 81.988)" fill="none" stroke="#000">
  <path id="path2596" d="m24.66 403.17h125.92" stroke-width="8"/>
  <path id="path2598" d="m43.62 406.17v5.7999" stroke-width="2"/>
  <path id="path2600" d="m131.61 406.17v5.7999" stroke-width="2"/>
 </g>
 <path id="path2604" d="m679.49 282.57v-3.5" fill="none" stroke="#000"/>
 <g id="g2613" transform="matrix(.5 0 0 .5 732.68 81.988)" fill="none" stroke="#000">
  <path id="path2607" d="m24.66 403.17h125.92" stroke-width="8"/>
  <path id="path2609" d="m43.62 406.17v5.7999" stroke-width="2"/>
  <path id="path2611" d="m131.61 406.17v5.7999" stroke-width="2"/>
 </g>
 <path id="path2615" d="m726.98 217.06v-5.4977" fill="none" stroke="#000"/>
 <g id="g2623" transform="matrix(.5 0 0 .5 635.58 81.988)" stroke="#000">
  <circle id="circle2617" transform="rotate(-90)" cx="-432.98" cy="43.62" r="2.7576" stroke-width="1.8335"/>
  <circle id="circle2619" transform="rotate(-90)" cx="-414.36" cy="43.62" r="2.7576" stroke-width="1.8335"/>
  <path id="path2621" d="m48.263 412.56v22.208" fill="none" stroke-width="2"/>
 </g>
 <path id="path2625" d="m647.34 339.13h20.052l-10.026 17.366z" fill="none" stroke="#000"/>
 <path id="path2627" d="m657.36 299.81v39.271" fill="none" stroke="#000"/>
 <g id="g2635" transform="matrix(.5 0 0 .5 776.66 81.988)" stroke="#000">
  <circle id="circle2629" transform="rotate(-90)" cx="-432.98" cy="43.62" r="2.7576" stroke-width="1.8335"/>
  <circle id="circle2631" transform="rotate(-90)" cx="-414.36" cy="43.62" r="2.7576" stroke-width="1.8335"/>
  <path id="path2633" d="m48.263 412.56v22.208" fill="none" stroke-width="2"/>
 </g>
 <path id="path2637" d="m691.25 339.13h20.052l-10.026 17.366z" fill="none" stroke="#000"/>
 <path id="path2639" d="m701.27 299.81v39.297" fill="none" stroke="#000"/>
 <path id="path2641" d="m808.48 339.13h-20.052l10.026 17.366z" fill="none" stroke="#000"/>
 <path id="path2643" d="m798.45 299.81v39.144" fill="none" stroke="#000"/>
 <circle id="circle2669" transform="rotate(-90)" cx="-227.66" cy="727.01" r="1.3788" fill="#f00" stroke="#f00" stroke-width=".91673"/>
 <circle id="circle2671" transform="rotate(-90)" cx="-218.34" cy="727.01" r="1.3788" fill="#f00" stroke="#f00" stroke-width=".91673"/>
 <path id="path2673" d="m735.94 218.88-7.4386 8.2445" fill="none" stroke="#f00"/>
 <path id="path2679" d="m726.98 228.94v11.216" fill="none" stroke="#000"/>
 <path id="path2957" d="m755.4 348.69h-1.8128c-0.12705 0-0.23002 0.103-0.23002 0.23007 0 0.12705 0.10297 0.23003 0.23002 0.23003h1.8128c0.12707 0 0.23005-0.10298 0.23005-0.23003 0-0.12707-0.10298-0.23007-0.23005-0.23007zm-0.0413 0.76592h-1.73c-0.12705 0-0.23002 0.10303-0.23002 0.23005 0 0.12708 0.10297 0.23005 0.23002 0.23005h1.73c0.12705 0 0.23002-0.10297 0.23002-0.23005 0-0.12702-0.10297-0.23005-0.23002-0.23005zm-1.7182 0.75528c0.44787 0.41405 0.494 0.49722 0.67277 0.49722h0.34435c0.17475 0 0.21785-0.0771 0.6891-0.49722zm3.472-5.512c0 1.5576-1.3395 2.4305-1.3395 3.6597h-0.61c5e-4 -1.515 1.3286-2.3129 1.3286-3.6597 0-2.521-3.9957-2.525-3.9957 0 0 1.3456 1.305 2.1092 1.3352 3.6597h-0.6167c0-1.2292-1.3395-2.1021-1.3395-3.6597-3e-5 -3.3476 5.2377-3.351 5.2377 0z" stroke-width=".025"/>
 <path id="path2959" d="m702.18 348.69h-1.8128c-0.12705 0-0.23002 0.103-0.23002 0.23007 0 0.12705 0.10297 0.23003 0.23002 0.23003h1.8128c0.12707 0 0.23005-0.10298 0.23005-0.23003 0-0.12707-0.10298-0.23007-0.23005-0.23007zm-0.0413 0.76592h-1.73c-0.12705 0-0.23002 0.10303-0.23002 0.23005 0 0.12708 0.10297 0.23005 0.23002 0.23005h1.73c0.12705 0 0.23002-0.10297 0.23002-0.23005 0-0.12702-0.10297-0.23005-0.23002-0.23005zm-1.7182 0.75528c0.44787 0.41405 0.494 0.49722 0.67277 0.49722h0.34435c0.17475 0 0.21785-0.0771 0.6891-0.49722zm3.472-5.512c0 1.5576-1.3395 2.4305-1.3395 3.6597h-0.61c5e-4 -1.515 1.3286-2.3129 1.3286-3.6597 0-2.521-3.9957-2.525-3.9957 0 0 1.3456 1.305 2.1092 1.3352 3.6597h-0.6167c0-1.2292-1.3395-2.1021-1.3395-3.6597-3e-5 -3.3476 5.2377-3.351 5.2377 0z" stroke-width=".025"/>
 <path id="path2961" d="m658.27 348.69h-1.8128c-0.12705 0-0.23002 0.103-0.23002 0.23007 0 0.12705 0.10297 0.23003 0.23002 0.23003h1.8128c0.12707 0 0.23005-0.10298 0.23005-0.23003 0-0.12707-0.10298-0.23007-0.23005-0.23007zm-0.0413 0.76592h-1.73c-0.12705 0-0.23002 0.10303-0.23002 0.23005 0 0.12708 0.10297 0.23005 0.23002 0.23005h1.73c0.12705 0 0.23002-0.10297 0.23002-0.23005 0-0.12702-0.10297-0.23005-0.23002-0.23005zm-1.7182 0.75528c0.44787 0.41405 0.494 0.49722 0.67277 0.49722h0.34435c0.17475 0 0.21785-0.0771 0.6891-0.49722zm3.472-5.512c0 1.5576-1.3395 2.4305-1.3395 3.6597h-0.61c5e-4 -1.515 1.3286-2.3129 1.3286-3.6597 0-2.521-3.9957-2.525-3.9957 0 0 1.3456 1.305 2.1092 1.3352 3.6597h-0.6167c0-1.2292-1.3395-2.1021-1.3395-3.6597-3e-5 -3.3476 5.2377-3.351 5.2377 0z" stroke-width=".025"/>
 <g id="g6" transform="matrix(.23056 0 0 .23056 580.73 128.99)">
  <path id="path2" d="m98.59 51.16c-4.23 0.92-7.88 3.28-9.59 7.35-1.03 2.47-2.47 8.85-6.42 7.2-1.89-0.78-1.86-3.49-1.64-5.18 0.47-3.47 2.03-6.64 3.1-9.94 1.1-3.42 2.05-6.86 2.73-10.4 2.28-11.72 1.65-25.22-6.64-34.59-1.4-1.6-4.93-5.3-7.26-5.38-1.44-0.04-0.02 1.66 0.38 2.23 0.81 1.17 1.49 2.44 2.01 3.77 6.13 15.64-8.98 27.55-18.91 36.82-4.76 4.45-8.56 9.17-11.98 14.68-0.34 0.53-1.09 2.31-2.06 1.94-1.15-0.44-1.27-3.07-1.63-4.05-0.68-1.88-1.73-3.93-3.08-5.4-2.61-2.86-6.26-4.79-10.21-4.53-0.15 0.01-0.58 0.08-1.11 0.2-0.83 0.18-3.05 0.47-2.45 1.81 0.31 0.69 1.22 0.63 1.87 0.82 8.34 2.56 8.15 11.3 6.8 18.32-2.44 12.78-9.2 24.86-4.4 38 5.66 15.49 23.38 25.16 39.46 22.5 4.39-0.72 9.45-2.14 13.39-4.26 4.19-2.26 8.78-5.35 12.05-8.83 4.21-4.47 6.89-10.2 7.68-16.27 0.93-7.02-1.31-13.64-3.35-20.27-2.46-8-5.29-21.06 4.93-24.97 0.5-0.2 1.5-0.35 1.85-0.88 1.3-1.94-4.94-0.81-5.52-0.69z" fill="#ed6c30"/>
  <path id="path4" d="m68.13 106.07c2.12 1.78 5.09 0.91 7.09-0.61 1.07-0.81 1.99-1.85 2.59-3.06 0.25-0.52 0.54-1.18 0.54-1.77 0-0.79-0.47-1.57-0.27-2.38 1.68-0.33 3.76 4.5 3.97 5.62 1.68 8.83-6.64 16.11-14.67 17.52-13.55 2.37-21.34-9.5-19.78-20.04 0.97-6.56 5.37-11.07 9.85-15.57 3.71-3.73 7.15-6.93 8.35-11.78 0.21-0.86 0.16-2.18-0.09-3.03-0.21-0.73-0.61-1.4-0.63-2.19-0.06-1.66 1.55 0.51 1.92 0.93 4.46 5.03 5.73 12.46 4.54 18.96-0.77 4.2-3.77 7.2-4.82 11.22-0.61 2.29-0.55 4.52 1.41 6.18z" fill="#fcc21b"/>
 </g>
 <text id="text2982" x="406.09686" y="194.62347" fill="#000000" font-family="sans-serif" font-size="42.667px" letter-spacing="0px" stop-color="#000000" stroke="#000000" stroke-width="1px" text-align="center" text-anchor="middle" word-spacing="0px" style="line-height:100%;text-decoration-color:#000000;text-decoration-line:none" xml:space="preserve"><tspan id="tspan2980" x="406.09686" y="194.62347">?</tspan></text>
</svg>
