<?xml version="1.0" encoding="UTF-8" standalone="no"?>
<svg
   xmlns:dc="http://purl.org/dc/elements/1.1/"
   xmlns:cc="http://creativecommons.org/ns#"
   xmlns:rdf="http://www.w3.org/1999/02/22-rdf-syntax-ns#"
   xmlns:svg="http://www.w3.org/2000/svg"
   xmlns="http://www.w3.org/2000/svg"
   xmlns:sodipodi="http://sodipodi.sourceforge.net/DTD/sodipodi-0.dtd"
   xmlns:inkscape="http://www.inkscape.org/namespaces/inkscape"
   inkscape:version="1.0alpha (487129e4ef, 2019-05-03)"
   sodipodi:docname="use-case.svg"
   id="svg8"
   version="1.1"
   viewBox="0 0 1002.66 342.26018"
   height="342.26016"
   width="1002.66">
  <sodipodi:namedview
     inkscape:current-layer="svg8"
     inkscape:window-maximized="1"
     inkscape:window-y="0"
     inkscape:window-x="2627"
     inkscape:cy="328.79866"
     inkscape:cx="802.5996"
     inkscape:zoom="1.9308984"
     showgrid="false"
     id="namedview122"
     inkscape:window-height="1412"
     inkscape:window-width="2493"
     inkscape:pageshadow="2"
     inkscape:pageopacity="0"
     guidetolerance="10"
     gridtolerance="10"
     objecttolerance="10"
     borderopacity="1"
     inkscape:document-rotation="0"
     bordercolor="#666666"
     pagecolor="#ffffff" />
  <style
     id="style1" />
  <defs
     id="defs1" />
  <metadata
     id="metadata5">
    <rdf:RDF>
      <cc:Work
         rdf:about="">
        <dc:format>image/svg+xml</dc:format>
        <dc:type
           rdf:resource="http://purl.org/dc/dcmitype/StillImage" />
        <dc:title />
      </cc:Work>
    </rdf:RDF>
  </metadata>
  <g
     transform="matrix(1.0010972,0,0,1.0010972,74.86841,-15.967135)"
     id="g5174"
     style="opacity:1;stop-opacity:1">
    <circle
       style="fill:none;fill-opacity:1;stroke:#000000;stroke-width:2;stroke-miterlimit:4;stroke-dasharray:none;stroke-opacity:1"
       id="path4515"
       cx="31.017483"
       cy="40.041283"
       r="9.646759" />
    <circle
       id="circle4517"
       style="fill:none;fill-opacity:1;stroke:#000000;stroke-width:2;stroke-miterlimit:4;stroke-dasharray:none;stroke-opacity:1"
       cx="31.017483"
       cy="59.627129"
       r="9.646759" />
  </g>
  <path
     sodipodi:nodetypes="cc"
     inkscape:connector-curvature="0"
     id="path4521"
     d="M 106.09276,14.22863 V 7.0097354"
     style="opacity:1;fill:none;stroke:#000000;stroke-width:2;stroke-linecap:butt;stroke-linejoin:miter;stroke-miterlimit:4;stroke-dasharray:none;stroke-opacity:1;stop-opacity:1" />
  <path
     inkscape:connector-curvature="0"
     id="path4547"
     d="m 0.11958,67.785241 h 185"
     style="opacity:1;fill:none;stroke:#000000;stroke-width:8;stroke-linecap:butt;stroke-linejoin:miter;stroke-miterlimit:4;stroke-dasharray:none;stroke-opacity:1;stop-opacity:1" />
  <rect
     y="130.83244"
     x="0.5"
     height="133.1918"
     width="173.23918"
     id="rect4553"
     style="opacity:1;fill:none;fill-opacity:1;stroke:#000000;stroke-width:1;stroke-miterlimit:4;stroke-dasharray:none;stroke-opacity:1;stop-opacity:1" />
  <path
     style="opacity:1;fill:none;fill-opacity:1;stroke:#000000;stroke-width:2;stroke-miterlimit:4;stroke-dasharray:none;stroke-opacity:1;stop-opacity:1"
     id="path4581"
     d="m 26.409233,311.31695 h 33.4207 l -16.71035,28.94317 z"
     inkscape:connector-curvature="0" />
  <path
     sodipodi:nodetypes="cccc"
     id="path2742"
     d="m 131.11958,230.05673 v 61.26022 h 223 v -60.99871"
     style="opacity:1;fill:none;stroke:#000000;stroke-width:2;stroke-linecap:butt;stroke-linejoin:miter;stroke-miterlimit:4;stroke-dasharray:none;stroke-opacity:1;stop-opacity:1"
     inkscape:connector-curvature="0" />
  <path
     sodipodi:nodetypes="cc"
     style="opacity:1;fill:none;stroke:#000000;stroke-width:2;stroke-linecap:butt;stroke-linejoin:miter;stroke-miterlimit:4;stroke-dasharray:none;stroke-opacity:1;stop-opacity:1"
     d="m 43.119583,229.34722 v 81.96973"
     id="path2764"
     inkscape:connector-curvature="0" />
  <path
     sodipodi:nodetypes="cc"
     style="opacity:1;fill:none;stroke:#000000;stroke-width:2;stroke-linecap:butt;stroke-linejoin:miter;stroke-miterlimit:4;stroke-dasharray:none;stroke-opacity:1;stop-opacity:1"
     d="M 87.119583,68.321251 V 162.8648"
     id="path5085"
     inkscape:connector-curvature="0" />
  <path
     style="opacity:1;fill:none;fill-rule:evenodd;stroke:#000000;stroke-width:2;stroke-linecap:butt;stroke-linejoin:miter;stroke-miterlimit:4;stroke-dasharray:none;stroke-opacity:1;stop-opacity:1"
     d="m 87.119583,195.31695 v -7"
     id="path1132"
     inkscape:connector-curvature="0" />
  <g
     id="g901"
     transform="matrix(-1.0010972,0,0,1.0010972,927.79155,-15.967135)"
     style="opacity:1;stop-opacity:1">
    <circle
       r="9.646759"
       cy="40.041283"
       cx="31.017483"
       id="circle897"
       style="fill:none;fill-opacity:1;stroke:#000000;stroke-width:2;stroke-miterlimit:4;stroke-dasharray:none;stroke-opacity:1" />
    <circle
       r="9.646759"
       cy="59.627129"
       cx="31.017483"
       style="fill:none;fill-opacity:1;stroke:#000000;stroke-width:2;stroke-miterlimit:4;stroke-dasharray:none;stroke-opacity:1"
       id="circle899" />
  </g>
  <path
     sodipodi:nodetypes="cc"
     style="opacity:1;fill:none;stroke:#000000;stroke-width:2;stroke-linecap:butt;stroke-linejoin:miter;stroke-miterlimit:4;stroke-dasharray:none;stroke-opacity:1;stop-opacity:1"
     d="M 896.5672,14.213922 V 5.3866854"
     id="path903"
     inkscape:connector-curvature="0" />
  <path
     style="opacity:1;fill:none;stroke:#000000;stroke-width:8;stroke-linecap:butt;stroke-linejoin:miter;stroke-miterlimit:4;stroke-dasharray:none;stroke-opacity:1;stop-opacity:1"
     d="M 1002.5404,67.785241 H 817.54038"
     id="path909"
     inkscape:connector-curvature="0" />
  <rect
     transform="scale(-1,1)"
     style="opacity:1;fill:none;fill-opacity:1;stroke:#000000;stroke-width:1;stroke-miterlimit:4;stroke-dasharray:none;stroke-opacity:1;stop-opacity:1"
     id="rect913"
     width="173.23918"
     height="133.1918"
     x="-1002.16"
     y="130.83244" />
  <path
     d="m 976.25078,311.31695 h -33.4207 l 16.7103,28.94317 z"
     id="path917"
     style="opacity:1;fill:none;fill-opacity:1;stroke:#000000;stroke-width:2;stroke-miterlimit:4;stroke-dasharray:none;stroke-opacity:1;stop-opacity:1"
     inkscape:connector-curvature="0" />
  <path
     sodipodi:nodetypes="cc"
     id="path921"
     d="m 959.54038,228.43626 v 82.88069"
     style="opacity:1;fill:none;stroke:#000000;stroke-width:2;stroke-linecap:butt;stroke-linejoin:miter;stroke-miterlimit:4;stroke-dasharray:none;stroke-opacity:1;stop-opacity:1"
     inkscape:connector-curvature="0" />
  <path
     sodipodi:nodetypes="cc"
     id="path923"
     d="M 915.54038,67.159231 V 165.99277"
     style="opacity:1;fill:none;stroke:#000000;stroke-width:2;stroke-linecap:butt;stroke-linejoin:miter;stroke-miterlimit:4;stroke-dasharray:none;stroke-opacity:1;stop-opacity:1"
     inkscape:connector-curvature="0" />
  <path
     id="path951"
     d="m 915.54038,195.31695 v -7"
     style="opacity:1;fill:none;fill-rule:evenodd;stroke:#000000;stroke-width:2;stroke-linecap:butt;stroke-linejoin:miter;stroke-miterlimit:4;stroke-dasharray:none;stroke-opacity:1;stop-opacity:1"
     inkscape:connector-curvature="0" />
  <g
     style="opacity:1;stop-opacity:1"
     id="g1027"
     transform="matrix(1.0010972,0,0,1.0010972,461.86841,-15.967135)">
    <circle
       r="9.646759"
       cy="40.041283"
       cx="31.017483"
       id="circle1023"
       style="fill:none;fill-opacity:1;stroke:#000000;stroke-width:2;stroke-miterlimit:4;stroke-dasharray:none;stroke-opacity:1" />
    <circle
       r="9.646759"
       cy="59.627129"
       cx="31.017483"
       style="fill:none;fill-opacity:1;stroke:#000000;stroke-width:2;stroke-miterlimit:4;stroke-dasharray:none;stroke-opacity:1"
       id="circle1025" />
  </g>
  <path
     sodipodi:nodetypes="cc"
     style="opacity:1;fill:none;stroke:#000000;stroke-width:2;stroke-linecap:butt;stroke-linejoin:miter;stroke-miterlimit:4;stroke-dasharray:none;stroke-opacity:1;stop-opacity:1"
     d="M 493.09276,14.728644 V 5.3866854"
     id="path1029"
     inkscape:connector-curvature="0" />
  <path
     style="opacity:1;fill:none;stroke:#000000;stroke-width:8;stroke-linecap:butt;stroke-linejoin:miter;stroke-miterlimit:4;stroke-dasharray:none;stroke-opacity:1;stop-opacity:1"
     d="m 387.11958,67.785241 h 215"
     id="path1035"
     inkscape:connector-curvature="0" />
  <rect
     style="opacity:1;fill:none;fill-opacity:1;stroke:#000000;stroke-width:1;stroke-miterlimit:4;stroke-dasharray:none;stroke-opacity:1;stop-opacity:1"
     id="rect1071"
     width="173.23918"
     height="133.1918"
     x="311.5"
     y="130.83244" />
  <path
     style="opacity:1;fill:none;fill-opacity:1;stroke:#000000;stroke-width:2;stroke-miterlimit:4;stroke-dasharray:none;stroke-opacity:1;stop-opacity:1"
     id="path1073"
     d="m 425.40923,311.31695 h 33.4207 l -16.71035,28.94321 z"
     inkscape:connector-curvature="0" />
  <path
     sodipodi:nodetypes="cc"
     style="opacity:1;fill:none;stroke:#000000;stroke-width:2;stroke-linecap:butt;stroke-linejoin:miter;stroke-miterlimit:4;stroke-dasharray:none;stroke-opacity:1;stop-opacity:1"
     d="m 442.11958,229.78873 v 81.52822"
     id="path1077"
     inkscape:connector-curvature="0" />
  <path
     sodipodi:nodetypes="cc"
     id="path1081"
     d="M 398.11958,65.718081 V 165.85759"
     style="opacity:1;fill:none;stroke:#000000;stroke-width:2;stroke-linecap:butt;stroke-linejoin:miter;stroke-miterlimit:4;stroke-dasharray:none;stroke-opacity:1;stop-opacity:1"
     inkscape:connector-curvature="0" />
  <path
     id="path1109"
     d="m 398.11958,195.31695 v -7"
     style="opacity:1;fill:none;fill-rule:evenodd;stroke:#000000;stroke-width:2;stroke-linecap:butt;stroke-linejoin:miter;stroke-miterlimit:4;stroke-dasharray:none;stroke-opacity:1;stop-opacity:1"
     inkscape:connector-curvature="0" />
  <rect
     style="opacity:1;fill:none;fill-opacity:1;stroke:#000000;stroke-width:1;stroke-miterlimit:4;stroke-dasharray:none;stroke-opacity:1;stop-opacity:1"
     id="rect1113"
     width="173.23918"
     height="133.1918"
     x="505.5"
     y="130.83244" />
  <path
     d="m 531.40923,311.31695 h 33.4207 l -16.71035,28.94317 z"
     id="path1117"
     style="opacity:1;fill:none;fill-opacity:1;stroke:#000000;stroke-width:2;stroke-miterlimit:4;stroke-dasharray:none;stroke-opacity:1;stop-opacity:1"
     inkscape:connector-curvature="0" />
  <path
     sodipodi:nodetypes="cccc"
     style="opacity:1;fill:none;stroke:#000000;stroke-width:2;stroke-linecap:butt;stroke-linejoin:miter;stroke-miterlimit:4;stroke-dasharray:none;stroke-opacity:1;stop-opacity:1"
     d="m 636.11958,229.99973 v 61.31722 h 235.4208 v -61.62779"
     id="path1119"
     inkscape:connector-curvature="0" />
  <path
     sodipodi:nodetypes="cc"
     id="path1121"
     d="m 548.11958,230.22374 v 81.09321"
     style="opacity:1;fill:none;stroke:#000000;stroke-width:2;stroke-linecap:butt;stroke-linejoin:miter;stroke-miterlimit:4;stroke-dasharray:none;stroke-opacity:1;stop-opacity:1"
     inkscape:connector-curvature="0" />
  <path
     sodipodi:nodetypes="cc"
     id="path1123"
     d="M 592.11958,64.059741 V 164.91519"
     style="opacity:1;fill:none;stroke:#000000;stroke-width:2;stroke-linecap:butt;stroke-linejoin:miter;stroke-miterlimit:4;stroke-dasharray:none;stroke-opacity:1;stop-opacity:1"
     inkscape:connector-curvature="0" />
  <path
     id="path1151"
     d="m 592.11958,195.31695 v -7"
     style="opacity:1;fill:none;fill-rule:evenodd;stroke:#000000;stroke-width:2;stroke-linecap:butt;stroke-linejoin:miter;stroke-miterlimit:4;stroke-dasharray:none;stroke-opacity:1;stop-opacity:1"
     inkscape:connector-curvature="0" />
  <g
     transform="translate(-0.5,-205.85094)"
     id="g1318">
    <circle
       style="opacity:1;fill:#000000;fill-opacity:1;stroke:#000000;stroke-width:1.83346;stroke-linecap:butt;stroke-miterlimit:4;stroke-dasharray:none;stroke-dashoffset:0;stroke-opacity:1;stop-opacity:1"
       id="circle2756"
       cx="-432.97961"
       cy="43.619595"
       r="2.7576182"
       transform="rotate(-90)" />
    <circle
       r="2.7576182"
       cy="43.619595"
       cx="-414.35605"
       id="circle2758"
       style="opacity:1;fill:#000000;fill-opacity:1;stroke:#000000;stroke-width:1.83346;stroke-linecap:butt;stroke-miterlimit:4;stroke-dasharray:none;stroke-dashoffset:0;stroke-opacity:1;stop-opacity:1"
       transform="rotate(-90)" />
    <path
       style="opacity:1;fill:none;fill-rule:evenodd;stroke:#000000;stroke-width:2;stroke-linecap:butt;stroke-linejoin:miter;stroke-miterlimit:4;stroke-dasharray:none;stroke-opacity:1;stop-opacity:1"
       d="m 48.263264,412.56363 v 22.20841"
       id="path1184"
       inkscape:connector-curvature="0"
       sodipodi:nodetypes="cc" />
  </g>
  <circle
     r="2.7576182"
     cy="106.09276"
     cx="-3.6743481"
     id="circle1192"
     style="opacity:1;fill:#000000;fill-opacity:1;stroke:#000000;stroke-width:1.83346;stroke-linecap:butt;stroke-miterlimit:4;stroke-dasharray:none;stroke-dashoffset:0;stroke-opacity:1;stop-opacity:1"
     transform="rotate(-90)" />
  <circle
     r="2.7576182"
     transform="rotate(-90)"
     style="opacity:1;fill:#000000;fill-opacity:1;stroke:#000000;stroke-width:1.83346;stroke-linecap:butt;stroke-miterlimit:4;stroke-dasharray:none;stroke-dashoffset:0;stroke-opacity:1;stop-opacity:1"
     id="circle1194"
     cx="-3.6743481"
     cy="493.09277" />
  <circle
     cy="896.5672"
     cx="-3.6743481"
     id="circle1196"
     style="opacity:1;fill:#000000;fill-opacity:1;stroke:#000000;stroke-width:1.83346;stroke-linecap:butt;stroke-miterlimit:4;stroke-dasharray:none;stroke-dashoffset:0;stroke-opacity:1;stop-opacity:1"
     transform="rotate(-90)"
     r="2.7576182" />
  <g
     transform="translate(-0.5,-205.85094)"
     id="g1323">
    <circle
       transform="rotate(-90)"
       r="2.7576182"
       cy="131.61475"
       cx="-432.96625"
       id="circle1217"
       style="opacity:1;fill:#000000;fill-opacity:1;stroke:#000000;stroke-width:1.83346;stroke-linecap:butt;stroke-miterlimit:4;stroke-dasharray:none;stroke-dashoffset:0;stroke-opacity:1;stop-opacity:1" />
    <circle
       transform="rotate(-90)"
       style="opacity:1;fill:#000000;fill-opacity:1;stroke:#000000;stroke-width:1.83346;stroke-linecap:butt;stroke-miterlimit:4;stroke-dasharray:none;stroke-dashoffset:0;stroke-opacity:1;stop-opacity:1"
       id="circle1219"
       cx="-414.34268"
       cy="131.61475"
       r="2.7576182" />
    <path
       sodipodi:nodetypes="cc"
       inkscape:connector-curvature="0"
       id="path1221"
       d="m 136.25841,412.55025 v 22.20841"
       style="opacity:1;fill:none;fill-rule:evenodd;stroke:#000000;stroke-width:2;stroke-linecap:butt;stroke-linejoin:miter;stroke-miterlimit:4;stroke-dasharray:none;stroke-opacity:1;stop-opacity:1" />
  </g>
  <g
     transform="translate(398.21538,-205.85094)"
     id="g1239">
    <circle
       transform="rotate(-90)"
       r="2.7576182"
       cy="43.619595"
       cx="-432.97961"
       id="circle1233"
       style="opacity:1;fill:#000000;fill-opacity:1;stroke:#000000;stroke-width:1.83346;stroke-linecap:butt;stroke-miterlimit:4;stroke-dasharray:none;stroke-dashoffset:0;stroke-opacity:1;stop-opacity:1" />
    <circle
       transform="rotate(-90)"
       style="opacity:1;fill:#000000;fill-opacity:1;stroke:#000000;stroke-width:1.83346;stroke-linecap:butt;stroke-miterlimit:4;stroke-dasharray:none;stroke-dashoffset:0;stroke-opacity:1;stop-opacity:1"
       id="circle1235"
       cx="-414.35605"
       cy="43.619595"
       r="2.7576182" />
    <path
       sodipodi:nodetypes="cc"
       inkscape:connector-curvature="0"
       id="path1237"
       d="m 48.263264,412.56363 v 22.20841"
       style="fill:none;fill-rule:evenodd;stroke:#000000;stroke-width:2;stroke-linecap:butt;stroke-linejoin:miter;stroke-miterlimit:4;stroke-dasharray:none;stroke-opacity:1" />
  </g>
  <g
     id="g1247"
     transform="translate(504.45005,-205.85094)">
    <circle
       style="opacity:1;fill:#000000;fill-opacity:1;stroke:#000000;stroke-width:1.83346;stroke-linecap:butt;stroke-miterlimit:4;stroke-dasharray:none;stroke-dashoffset:0;stroke-opacity:1;stop-opacity:1"
       id="circle1241"
       cx="-432.97961"
       cy="43.619595"
       r="2.7576182"
       transform="rotate(-90)" />
    <circle
       r="2.7576182"
       cy="43.619595"
       cx="-414.35605"
       id="circle1243"
       style="opacity:1;fill:#000000;fill-opacity:1;stroke:#000000;stroke-width:1.83346;stroke-linecap:butt;stroke-miterlimit:4;stroke-dasharray:none;stroke-dashoffset:0;stroke-opacity:1;stop-opacity:1"
       transform="rotate(-90)" />
    <path
       style="fill:none;fill-rule:evenodd;stroke:#000000;stroke-width:2;stroke-linecap:butt;stroke-linejoin:miter;stroke-miterlimit:4;stroke-dasharray:none;stroke-opacity:1"
       d="m 48.263264,412.56363 v 22.20841"
       id="path1245"
       inkscape:connector-curvature="0"
       sodipodi:nodetypes="cc" />
  </g>
  <circle
     style="opacity:1;fill:#000000;fill-opacity:1;stroke:#000000;stroke-width:1.83346;stroke-linecap:butt;stroke-miterlimit:4;stroke-dasharray:none;stroke-dashoffset:0;stroke-opacity:1;stop-opacity:1"
     id="circle1249"
     cx="-227.12866"
     cy="635.9306"
     r="2.7576182"
     transform="rotate(-90)" />
  <circle
     r="2.7576182"
     cy="635.9306"
     cx="-208.5051"
     id="circle1251"
     style="opacity:1;fill:#000000;fill-opacity:1;stroke:#000000;stroke-width:1.83346;stroke-linecap:butt;stroke-miterlimit:4;stroke-dasharray:none;stroke-dashoffset:0;stroke-opacity:1;stop-opacity:1"
     transform="rotate(-90)" />
  <path
     style="opacity:1;fill:none;fill-rule:evenodd;stroke:#000000;stroke-width:2;stroke-linecap:butt;stroke-linejoin:miter;stroke-miterlimit:4;stroke-dasharray:none;stroke-opacity:1;stop-opacity:1"
     d="m 654.42611,209.96504 -15.70372,15.70371"
     id="path1253"
     inkscape:connector-curvature="0"
     sodipodi:nodetypes="cc" />
  <g
     id="g1263"
     transform="translate(827.8687,-205.85094)">
    <circle
       style="opacity:1;fill:#000000;fill-opacity:1;stroke:#000000;stroke-width:1.83346;stroke-linecap:butt;stroke-miterlimit:4;stroke-dasharray:none;stroke-dashoffset:0;stroke-opacity:1;stop-opacity:1"
       id="circle1257"
       cx="-432.97961"
       cy="43.619595"
       r="2.7576182"
       transform="rotate(-90)" />
    <circle
       r="2.7576182"
       cy="43.619595"
       cx="-414.35605"
       id="circle1259"
       style="opacity:1;fill:#000000;fill-opacity:1;stroke:#000000;stroke-width:1.83346;stroke-linecap:butt;stroke-miterlimit:4;stroke-dasharray:none;stroke-dashoffset:0;stroke-opacity:1;stop-opacity:1"
       transform="rotate(-90)" />
    <path
       style="fill:none;fill-rule:evenodd;stroke:#000000;stroke-width:2;stroke-linecap:butt;stroke-linejoin:miter;stroke-miterlimit:4;stroke-dasharray:none;stroke-opacity:1"
       d="m 48.263264,412.56363 v 22.20841"
       id="path1261"
       inkscape:connector-curvature="0"
       sodipodi:nodetypes="cc" />
  </g>
  <g
     transform="translate(915.69409,-205.85094)"
     id="g1271">
    <circle
       transform="rotate(-90)"
       r="2.7576182"
       cy="43.619595"
       cx="-432.97961"
       id="circle1265"
       style="opacity:1;fill:#000000;fill-opacity:1;stroke:#000000;stroke-width:1.83346;stroke-linecap:butt;stroke-miterlimit:4;stroke-dasharray:none;stroke-dashoffset:0;stroke-opacity:1;stop-opacity:1" />
    <circle
       transform="rotate(-90)"
       style="opacity:1;fill:#000000;fill-opacity:1;stroke:#000000;stroke-width:1.83346;stroke-linecap:butt;stroke-miterlimit:4;stroke-dasharray:none;stroke-dashoffset:0;stroke-opacity:1;stop-opacity:1"
       id="circle1267"
       cx="-414.35605"
       cy="43.619595"
       r="2.7576182" />
    <path
       sodipodi:nodetypes="cc"
       inkscape:connector-curvature="0"
       id="path1269"
       d="m 48.263264,412.56363 v 22.20841"
       style="fill:none;fill-rule:evenodd;stroke:#000000;stroke-width:2;stroke-linecap:butt;stroke-linejoin:miter;stroke-miterlimit:4;stroke-dasharray:none;stroke-opacity:1" />
  </g>
  <g
     transform="translate(43.43652,-248.13105)"
     id="g1279">
    <circle
       transform="rotate(-90)"
       r="2.7576182"
       cy="43.619595"
       cx="-432.97961"
       id="circle1273"
       style="opacity:1;fill:#000000;fill-opacity:1;stroke:#000000;stroke-width:1.83346;stroke-linecap:butt;stroke-miterlimit:4;stroke-dasharray:none;stroke-dashoffset:0;stroke-opacity:1;stop-opacity:1" />
    <circle
       transform="rotate(-90)"
       style="opacity:1;fill:#000000;fill-opacity:1;stroke:#000000;stroke-width:1.83346;stroke-linecap:butt;stroke-miterlimit:4;stroke-dasharray:none;stroke-dashoffset:0;stroke-opacity:1;stop-opacity:1"
       id="circle1275"
       cx="-414.35605"
       cy="43.619595"
       r="2.7576182" />
    <path
       sodipodi:nodetypes="cc"
       inkscape:connector-curvature="0"
       id="path1277"
       d="m 48.263264,412.56363 v 22.20841"
       style="fill:none;fill-rule:evenodd;stroke:#000000;stroke-width:2;stroke-linecap:butt;stroke-linejoin:miter;stroke-miterlimit:4;stroke-dasharray:none;stroke-opacity:1" />
  </g>
  <g
     id="g1287"
     transform="translate(354.44561,-248.13105)">
    <circle
       style="opacity:1;fill:#000000;fill-opacity:1;stroke:#000000;stroke-width:1.83346;stroke-linecap:butt;stroke-miterlimit:4;stroke-dasharray:none;stroke-dashoffset:0;stroke-opacity:1;stop-opacity:1"
       id="circle1281"
       cx="-432.97961"
       cy="43.619595"
       r="2.7576182"
       transform="rotate(-90)" />
    <circle
       r="2.7576182"
       cy="43.619595"
       cx="-414.35605"
       id="circle1283"
       style="opacity:1;fill:#000000;fill-opacity:1;stroke:#000000;stroke-width:1.83346;stroke-linecap:butt;stroke-miterlimit:4;stroke-dasharray:none;stroke-dashoffset:0;stroke-opacity:1;stop-opacity:1"
       transform="rotate(-90)" />
    <path
       style="fill:none;fill-rule:evenodd;stroke:#000000;stroke-width:2;stroke-linecap:butt;stroke-linejoin:miter;stroke-miterlimit:4;stroke-dasharray:none;stroke-opacity:1"
       d="m 48.263264,412.56363 v 22.20841"
       id="path1285"
       inkscape:connector-curvature="0"
       sodipodi:nodetypes="cc" />
  </g>
  <g
     transform="translate(548.45843,-248.13105)"
     id="g1295">
    <circle
       transform="rotate(-90)"
       r="2.7576182"
       cy="43.619595"
       cx="-432.97961"
       id="circle1289"
       style="opacity:1;fill:#000000;fill-opacity:1;stroke:#000000;stroke-width:1.83346;stroke-linecap:butt;stroke-miterlimit:4;stroke-dasharray:none;stroke-dashoffset:0;stroke-opacity:1;stop-opacity:1" />
    <circle
       transform="rotate(-90)"
       style="opacity:1;fill:#000000;fill-opacity:1;stroke:#000000;stroke-width:1.83346;stroke-linecap:butt;stroke-miterlimit:4;stroke-dasharray:none;stroke-dashoffset:0;stroke-opacity:1;stop-opacity:1"
       id="circle1291"
       cx="-414.35605"
       cy="43.619595"
       r="2.7576182" />
    <path
       sodipodi:nodetypes="cc"
       inkscape:connector-curvature="0"
       id="path1293"
       d="m 48.263264,412.56363 v 22.20841"
       style="fill:none;fill-rule:evenodd;stroke:#000000;stroke-width:2;stroke-linecap:butt;stroke-linejoin:miter;stroke-miterlimit:4;stroke-dasharray:none;stroke-opacity:1" />
  </g>
  <g
     id="g1303"
     transform="translate(871.79154,-248.13105)">
    <circle
       style="opacity:1;fill:#000000;fill-opacity:1;stroke:#000000;stroke-width:1.83346;stroke-linecap:butt;stroke-miterlimit:4;stroke-dasharray:none;stroke-dashoffset:0;stroke-opacity:1;stop-opacity:1"
       id="circle1297"
       cx="-432.97961"
       cy="43.619595"
       r="2.7576182"
       transform="rotate(-90)" />
    <circle
       r="2.7576182"
       cy="43.619595"
       cx="-414.35605"
       id="circle1299"
       style="opacity:1;fill:#000000;fill-opacity:1;stroke:#000000;stroke-width:1.83346;stroke-linecap:butt;stroke-miterlimit:4;stroke-dasharray:none;stroke-dashoffset:0;stroke-opacity:1;stop-opacity:1"
       transform="rotate(-90)" />
    <path
       style="fill:none;fill-rule:evenodd;stroke:#000000;stroke-width:2;stroke-linecap:butt;stroke-linejoin:miter;stroke-miterlimit:4;stroke-dasharray:none;stroke-opacity:1"
       d="m 48.263264,412.56363 v 22.20841"
       id="path1301"
       inkscape:connector-curvature="0"
       sodipodi:nodetypes="cc" />
  </g>
  <g
     transform="translate(-0.5,-205.85094)"
     id="g1328">
    <path
       inkscape:connector-curvature="0"
       id="path1130"
       d="M 24.659529,403.16789 H 150.57964"
       style="opacity:1;fill:none;fill-rule:evenodd;stroke:#000000;stroke-width:8;stroke-linecap:butt;stroke-linejoin:miter;stroke-miterlimit:4;stroke-dasharray:none;stroke-opacity:1;stop-opacity:1"
       sodipodi:nodetypes="cc" />
    <path
       style="fill:none;fill-rule:evenodd;stroke:#000000;stroke-width:2;stroke-linecap:butt;stroke-linejoin:miter;stroke-miterlimit:4;stroke-dasharray:none;stroke-opacity:1"
       d="m 43.619595,406.17178 v 5.79992"
       id="path1305"
       inkscape:connector-curvature="0" />
    <path
       inkscape:connector-curvature="0"
       id="path1310"
       d="m 131.61475,406.17178 v 5.79992"
       style="fill:none;fill-rule:evenodd;stroke:#000000;stroke-width:2;stroke-linecap:butt;stroke-linejoin:miter;stroke-miterlimit:4;stroke-dasharray:none;stroke-opacity:1" />
  </g>
  <g
     transform="translate(310.5,-205.85094)"
     id="g1336">
    <path
       sodipodi:nodetypes="cc"
       style="opacity:1;fill:none;fill-rule:evenodd;stroke:#000000;stroke-width:8;stroke-linecap:butt;stroke-linejoin:miter;stroke-miterlimit:4;stroke-dasharray:none;stroke-opacity:1;stop-opacity:1"
       d="M 24.659529,403.16789 H 150.57964"
       id="path1330"
       inkscape:connector-curvature="0" />
    <path
       inkscape:connector-curvature="0"
       id="path1332"
       d="m 43.619595,406.17178 v 5.79992"
       style="fill:none;fill-rule:evenodd;stroke:#000000;stroke-width:2;stroke-linecap:butt;stroke-linejoin:miter;stroke-miterlimit:4;stroke-dasharray:none;stroke-opacity:1" />
    <path
       style="fill:none;fill-rule:evenodd;stroke:#000000;stroke-width:2;stroke-linecap:butt;stroke-linejoin:miter;stroke-miterlimit:4;stroke-dasharray:none;stroke-opacity:1"
       d="m 131.61475,406.17178 v 5.79992"
       id="path1334"
       inkscape:connector-curvature="0" />
  </g>
  <path
     inkscape:connector-curvature="0"
     style="opacity:1;fill:none;fill-rule:evenodd;stroke:#000000;stroke-width:2;stroke-linecap:butt;stroke-linejoin:miter;stroke-miterlimit:4;stroke-dasharray:none;stroke-opacity:1;stop-opacity:1"
     d="m 398.11958,195.31695 v -7"
     id="path1338" />
  <circle
     transform="rotate(-90)"
     r="2.7576182"
     cy="354.06055"
     cx="-227.12866"
     id="circle1225"
     style="opacity:1;fill:#000000;fill-opacity:1;stroke:#000000;stroke-width:1.83346;stroke-linecap:butt;stroke-miterlimit:4;stroke-dasharray:none;stroke-dashoffset:0;stroke-opacity:1;stop-opacity:1" />
  <circle
     transform="rotate(-90)"
     style="opacity:1;fill:#000000;fill-opacity:1;stroke:#000000;stroke-width:1.83346;stroke-linecap:butt;stroke-miterlimit:4;stroke-dasharray:none;stroke-dashoffset:0;stroke-opacity:1;stop-opacity:1"
     id="circle1227"
     cx="-208.5051"
     cy="354.06055"
     r="2.7576182" />
  <path
     sodipodi:nodetypes="cc"
     inkscape:connector-curvature="0"
     id="path1229"
     d="m 372.55608,209.96504 -15.70372,15.70371"
     style="opacity:1;fill:none;fill-rule:evenodd;stroke:#000000;stroke-width:2;stroke-linecap:butt;stroke-linejoin:miter;stroke-miterlimit:4;stroke-dasharray:none;stroke-opacity:1;stop-opacity:1" />
  <g
     id="g1346"
     transform="translate(504.5,-205.85094)">
    <path
       inkscape:connector-curvature="0"
       id="path1340"
       d="M 24.659529,403.16789 H 150.57964"
       style="opacity:1;fill:none;fill-rule:evenodd;stroke:#000000;stroke-width:8;stroke-linecap:butt;stroke-linejoin:miter;stroke-miterlimit:4;stroke-dasharray:none;stroke-opacity:1;stop-opacity:1"
       sodipodi:nodetypes="cc" />
    <path
       style="fill:none;fill-rule:evenodd;stroke:#000000;stroke-width:2;stroke-linecap:butt;stroke-linejoin:miter;stroke-miterlimit:4;stroke-dasharray:none;stroke-opacity:1"
       d="m 43.619595,406.17178 v 5.79992"
       id="path1342"
       inkscape:connector-curvature="0" />
    <path
       inkscape:connector-curvature="0"
       id="path1344"
       d="m 131.61475,406.17178 v 5.79992"
       style="fill:none;fill-rule:evenodd;stroke:#000000;stroke-width:2;stroke-linecap:butt;stroke-linejoin:miter;stroke-miterlimit:4;stroke-dasharray:none;stroke-opacity:1" />
  </g>
  <g
     transform="translate(827.9208,-205.85094)"
     id="g1354">
    <path
       sodipodi:nodetypes="cc"
       style="opacity:1;fill:none;fill-rule:evenodd;stroke:#000000;stroke-width:8;stroke-linecap:butt;stroke-linejoin:miter;stroke-miterlimit:4;stroke-dasharray:none;stroke-opacity:1;stop-opacity:1"
       d="M 24.659529,403.16789 H 150.57964"
       id="path1348"
       inkscape:connector-curvature="0" />
    <path
       inkscape:connector-curvature="0"
       id="path1350"
       d="m 43.619595,406.17178 v 5.79992"
       style="fill:none;fill-rule:evenodd;stroke:#000000;stroke-width:2;stroke-linecap:butt;stroke-linejoin:miter;stroke-miterlimit:4;stroke-dasharray:none;stroke-opacity:1" />
    <path
       style="fill:none;fill-rule:evenodd;stroke:#000000;stroke-width:2;stroke-linecap:butt;stroke-linejoin:miter;stroke-miterlimit:4;stroke-dasharray:none;stroke-opacity:1"
       d="m 131.61475,406.17178 v 5.79992"
       id="path1352"
       inkscape:connector-curvature="0" />
  </g>
  <path
     style="opacity:1;fill:none;stroke:#000000;stroke-width:2;stroke-linecap:butt;stroke-linejoin:miter;stroke-miterlimit:4;stroke-dasharray:none;stroke-opacity:1;stop-opacity:1"
     d="M 106.09276,64.704691 V 53.412161"
     id="path1356"
     inkscape:connector-curvature="0"
     sodipodi:nodetypes="cc" />
  <path
     inkscape:connector-curvature="0"
     id="path1358"
     d="M 493.09276,64.300431 V 53.304981"
     style="opacity:1;fill:none;stroke:#000000;stroke-width:2;stroke-linecap:butt;stroke-linejoin:miter;stroke-miterlimit:4;stroke-dasharray:none;stroke-opacity:1;stop-opacity:1"
     sodipodi:nodetypes="cc" />
  <path
     inkscape:connector-curvature="0"
     id="path1360"
     d="M 896.5672,64.433911 V 53.601531"
     style="opacity:1;fill:none;stroke:#000000;stroke-width:2;stroke-linecap:butt;stroke-linejoin:miter;stroke-miterlimit:4;stroke-dasharray:none;stroke-opacity:1;stop-opacity:1"
     sodipodi:nodetypes="cc" />
</svg>
